regularization lambda: 0.0
network layers: [13, 13, 6, 3]
network training data:
 [[[14.23, 1.71, 2.43, 15.6, 127.0, 2.8, 3.06, 0.28, 2.29, 5.64, 1.04, 3.92, 1065.0], [1.0]], [[13.2, 1.78, 2.14, 11.2, 100.0, 2.65, 2.76, 0.26, 1.28, 4.38, 1.05, 3.4, 1050.0], [1.0]], [[13.16, 2.36, 2.67, 18.6, 101.0, 2.8, 3.24, 0.3, 2.81, 5.68, 1.03, 3.17, 1185.0], [1.0]], [[14.37, 1.95, 2.5, 16.8, 113.0, 3.85, 3.49, 0.24, 2.18, 7.8, 0.86, 3.45, 1480.0], [1.0]], [[13.24, 2.59, 2.87, 21.0, 118.0, 2.8, 2.69, 0.39, 1.82, 4.32, 1.04, 2.93, 735.0], [1.0]], [[14.2, 1.76, 2.45, 15.2, 112.0, 3.27, 3.39, 0.34, 1.97, 6.75, 1.05, 2.85, 1450.0], [1.0]], [[14.39, 1.87, 2.45, 14.6, 96.0, 2.5, 2.52, 0.3, 1.98, 5.25, 1.02, 3.58, 1290.0], [1.0]], [[14.06, 2.15, 2.61, 17.6, 121.0, 2.6, 2.51, 0.31, 1.25, 5.05, 1.06, 3.58, 1295.0], [1.0]], [[14.83, 1.64, 2.17, 14.0, 97.0, 2.8, 2.98, 0.29, 1.98, 5.2, 1.08, 2.85, 1045.0], [1.0]], [[13.86, 1.35, 2.27, 16.0, 98.0, 2.98, 3.15, 0.22, 1.85, 7.22, 1.01, 3.55, 1045.0], [1.0]], [[14.1, 2.16, 2.3, 18.0, 105.0, 2.95, 3.32, 0.22, 2.38, 5.75, 1.25, 3.17, 1510.0], [1.0]], [[14.12, 1.48, 2.32, 16.8, 95.0, 2.2, 2.43, 0.26, 1.57, 5.0, 1.17, 2.82, 1280.0], [1.0]], [[13.75, 1.73, 2.41, 16.0, 89.0, 2.6, 2.76, 0.29, 1.81, 5.6, 1.15, 2.9, 1320.0], [1.0]], [[14.75, 1.73, 2.39, 11.4, 91.0, 3.1, 3.69, 0.43, 2.81, 5.4, 1.25, 2.73, 1150.0], [1.0]], [[14.38, 1.87, 2.38, 12.0, 102.0, 3.3, 3.64, 0.29, 2.96, 7.5, 1.2, 3.0, 1547.0], [1.0]], [[13.63, 1.81, 2.7, 17.2, 112.0, 2.85, 2.91, 0.3, 1.46, 7.3, 1.28, 2.88, 1310.0], [1.0]], [[14.3, 1.92, 2.72, 20.0, 120.0, 2.8, 3.14, 0.33, 1.97, 6.2, 1.07, 2.65, 1280.0], [1.0]], [[13.83, 1.57, 2.62, 20.0, 115.0, 2.95, 3.4, 0.4, 1.72, 6.6, 1.13, 2.57, 1130.0], [1.0]], [[14.19, 1.59, 2.48, 16.5, 108.0, 3.3, 3.93, 0.32, 1.86, 8.7, 1.23, 2.82, 1680.0], [1.0]], [[13.64, 3.1, 2.56, 15.2, 116.0, 2.7, 3.03, 0.17, 1.66, 5.1, 0.96, 3.36, 845.0], [1.0]], [[14.06, 1.63, 2.28, 16.0, 126.0, 3.0, 3.17, 0.24, 2.1, 5.65, 1.09, 3.71, 780.0], [1.0]], [[12.93, 3.8, 2.65, 18.6, 102.0, 2.41, 2.41, 0.25, 1.98, 4.5, 1.03, 3.52, 770.0], [1.0]], [[13.71, 1.86, 2.36, 16.6, 101.0, 2.61, 2.88, 0.27, 1.69, 3.8, 1.11, 4.0, 1035.0], [1.0]], [[12.85, 1.6, 2.52, 17.8, 95.0, 2.48, 2.37, 0.26, 1.46, 3.93, 1.09, 3.63, 1015.0], [1.0]], [[13.5, 1.81, 2.61, 20.0, 96.0, 2.53, 2.61, 0.28, 1.66, 3.52, 1.12, 3.82, 845.0], [1.0]], [[13.05, 2.05, 3.22, 25.0, 124.0, 2.63, 2.68, 0.47, 1.92, 3.58, 1.13, 3.2, 830.0], [1.0]], [[13.39, 1.77, 2.62, 16.1, 93.0, 2.85, 2.94, 0.34, 1.45, 4.8, 0.92, 3.22, 1195.0], [1.0]], [[13.3, 1.72, 2.14, 17.0, 94.0, 2.4, 2.19, 0.27, 1.35, 3.95, 1.02, 2.77, 1285.0], [1.0]], [[13.87, 1.9, 2.8, 19.4, 107.0, 2.95, 2.97, 0.37, 1.76, 4.5, 1.25, 3.4, 915.0], [1.0]], [[14.02, 1.68, 2.21, 16.0, 96.0, 2.65, 2.33, 0.26, 1.98, 4.7, 1.04, 3.59, 1035.0], [1.0]], [[13.73, 1.5, 2.7, 22.5, 101.0, 3.0, 3.25, 0.29, 2.38, 5.7, 1.19, 2.71, 1285.0], [1.0]], [[13.58, 1.66, 2.36, 19.1, 106.0, 2.86, 3.19, 0.22, 1.95, 6.9, 1.09, 2.88, 1515.0], [1.0]], [[13.68, 1.83, 2.36, 17.2, 104.0, 2.42, 2.69, 0.42, 1.97, 3.84, 1.23, 2.87, 990.0], [1.0]], [[13.76, 1.53, 2.7, 19.5, 132.0, 2.95, 2.74, 0.5, 1.35, 5.4, 1.25, 3.0, 1235.0], [1.0]], [[13.51, 1.8, 2.65, 19.0, 110.0, 2.35, 2.53, 0.29, 1.54, 4.2, 1.1, 2.87, 1095.0], [1.0]], [[13.48, 1.81, 2.41, 20.5, 100.0, 2.7, 2.98, 0.26, 1.86, 5.1, 1.04, 3.47, 920.0], [1.0]], [[13.28, 1.64, 2.84, 15.5, 110.0, 2.6, 2.68, 0.34, 1.36, 4.6, 1.09, 2.78, 880.0], [1.0]], [[13.05, 1.65, 2.55, 18.0, 98.0, 2.45, 2.43, 0.29, 1.44, 4.25, 1.12, 2.51, 1105.0], [1.0]], [[13.07, 1.5, 2.1, 15.5, 98.0, 2.4, 2.64, 0.28, 1.37, 3.7, 1.18, 2.69, 1020.0], [1.0]], [[14.22, 3.99, 2.51, 13.2, 128.0, 3.0, 3.04, 0.2, 2.08, 5.1, 0.89, 3.53, 760.0], [1.0]], [[13.56, 1.71, 2.31, 16.2, 117.0, 3.15, 3.29, 0.34, 2.34, 6.13, 0.95, 3.38, 795.0], [1.0]], [[13.41, 3.84, 2.12, 18.8, 90.0, 2.45, 2.68, 0.27, 1.48, 4.28, 0.91, 3.0, 1035.0], [1.0]], [[13.88, 1.89, 2.59, 15.0, 101.0, 3.25, 3.56, 0.17, 1.7, 5.43, 0.88, 3.56, 1095.0], [1.0]], [[13.24, 3.98, 2.29, 17.5, 103.0, 2.64, 2.63, 0.32, 1.66, 4.36, 0.82, 3.0, 680.0], [1.0]], [[13.05, 1.77, 2.1, 17.0, 107.0, 3.0, 3.0, 0.28, 2.03, 5.04, 0.88, 3.35, 885.0], [1.0]], [[14.21, 4.04, 2.44, 18.9, 111.0, 2.85, 2.65, 0.3, 1.25, 5.24, 0.87, 3.33, 1080.0], [1.0]], [[14.38, 3.59, 2.28, 16.0, 102.0, 3.25, 3.17, 0.27, 2.19, 4.9, 1.04, 3.44, 1065.0], [1.0]], [[13.9, 1.68, 2.12, 16.0, 101.0, 3.1, 3.39, 0.21, 2.14, 6.1, 0.91, 3.33, 985.0], [1.0]], [[14.1, 2.02, 2.4, 18.8, 103.0, 2.75, 2.92, 0.32, 2.38, 6.2, 1.07, 2.75, 1060.0], [1.0]], [[13.94, 1.73, 2.27, 17.4, 108.0, 2.88, 3.54, 0.32, 2.08, 8.9, 1.12, 3.1, 1260.0], [1.0]], [[13.05, 1.73, 2.04, 12.4, 92.0, 2.72, 3.27, 0.17, 2.91, 7.2, 1.12, 2.91, 1150.0], [1.0]], [[13.83, 1.65, 2.6, 17.2, 94.0, 2.45, 2.99, 0.22, 2.29, 5.6, 1.24, 3.37, 1265.0], [1.0]], [[13.82, 1.75, 2.42, 14.0, 111.0, 3.88, 3.74, 0.32, 1.87, 7.05, 1.01, 3.26, 1190.0], [1.0]], [[13.77, 1.9, 2.68, 17.1, 115.0, 3.0, 2.79, 0.39, 1.68, 6.3, 1.13, 2.93, 1375.0], [1.0]], [[13.74, 1.67, 2.25, 16.4, 118.0, 2.6, 2.9, 0.21, 1.62, 5.85, 0.92, 3.2, 1060.0], [1.0]], [[13.56, 1.73, 2.46, 20.5, 116.0, 2.96, 2.78, 0.2, 2.45, 6.25, 0.98, 3.03, 1120.0], [1.0]], [[14.22, 1.7, 2.3, 16.3, 118.0, 3.2, 3.0, 0.26, 2.03, 6.38, 0.94, 3.31, 970.0], [1.0]], [[13.29, 1.97, 2.68, 16.8, 102.0, 3.0, 3.23, 0.31, 1.66, 6.0, 1.07, 2.84, 1270.0], [1.0]], [[13.72, 1.43, 2.5, 16.7, 108.0, 3.4, 3.67, 0.19, 2.04, 6.8, 0.89, 2.87, 1285.0], [1.0]], [[12.37, 0.94, 1.36, 10.6, 88.0, 1.98, 0.57, 0.28, 0.42, 1.95, 1.05, 1.82, 520.0], [2.0]], [[12.33, 1.1, 2.28, 16.0, 101.0, 2.05, 1.09, 0.63, 0.41, 3.27, 1.25, 1.67, 680.0], [2.0]], [[12.64, 1.36, 2.02, 16.8, 100.0, 2.02, 1.41, 0.53, 0.62, 5.75, 0.98, 1.59, 450.0], [2.0]], [[13.67, 1.25, 1.92, 18.0, 94.0, 2.1, 1.79, 0.32, 0.73, 3.8, 1.23, 2.46, 630.0], [2.0]], [[12.37, 1.13, 2.16, 19.0, 87.0, 3.5, 3.1, 0.19, 1.87, 4.45, 1.22, 2.87, 420.0], [2.0]], [[12.17, 1.45, 2.53, 19.0, 104.0, 1.89, 1.75, 0.45, 1.03, 2.95, 1.45, 2.23, 355.0], [2.0]], [[12.37, 1.21, 2.56, 18.1, 98.0, 2.42, 2.65, 0.37, 2.08, 4.6, 1.19, 2.3, 678.0], [2.0]], [[13.11, 1.01, 1.7, 15.0, 78.0, 2.98, 3.18, 0.26, 2.28, 5.3, 1.12, 3.18, 502.0], [2.0]], [[12.37, 1.17, 1.92, 19.6, 78.0, 2.11, 2.0, 0.27, 1.04, 4.68, 1.12, 3.48, 510.0], [2.0]], [[13.34, 0.94, 2.36, 17.0, 110.0, 2.53, 1.3, 0.55, 0.42, 3.17, 1.02, 1.93, 750.0], [2.0]], [[12.21, 1.19, 1.75, 16.8, 151.0, 1.85, 1.28, 0.14, 2.5, 2.85, 1.28, 3.07, 718.0], [2.0]], [[12.29, 1.61, 2.21, 20.4, 103.0, 1.1, 1.02, 0.37, 1.46, 3.05, 0.906, 1.82, 870.0], [2.0]], [[13.86, 1.51, 2.67, 25.0, 86.0, 2.95, 2.86, 0.21, 1.87, 3.38, 1.36, 3.16, 410.0], [2.0]], [[13.49, 1.66, 2.24, 24.0, 87.0, 1.88, 1.84, 0.27, 1.03, 3.74, 0.98, 2.78, 472.0], [2.0]], [[12.99, 1.67, 2.6, 30.0, 139.0, 3.3, 2.89, 0.21, 1.96, 3.35, 1.31, 3.5, 985.0], [2.0]], [[11.96, 1.09, 2.3, 21.0, 101.0, 3.38, 2.14, 0.13, 1.65, 3.21, 0.99, 3.13, 886.0], [2.0]], [[11.66, 1.88, 1.92, 16.0, 97.0, 1.61, 1.57, 0.34, 1.15, 3.8, 1.23, 2.14, 428.0], [2.0]], [[13.03, 0.9, 1.71, 16.0, 86.0, 1.95, 2.03, 0.24, 1.46, 4.6, 1.19, 2.48, 392.0], [2.0]], [[11.84, 2.89, 2.23, 18.0, 112.0, 1.72, 1.32, 0.43, 0.95, 2.65, 0.96, 2.52, 500.0], [2.0]], [[12.33, 0.99, 1.95, 14.8, 136.0, 1.9, 1.85, 0.35, 2.76, 3.4, 1.06, 2.31, 750.0], [2.0]], [[12.7, 3.87, 2.4, 23.0, 101.0, 2.83, 2.55, 0.43, 1.95, 2.57, 1.19, 3.13, 463.0], [2.0]], [[12.0, 0.92, 2.0, 19.0, 86.0, 2.42, 2.26, 0.3, 1.43, 2.5, 1.38, 3.12, 278.0], [2.0]], [[12.72, 1.81, 2.2, 18.8, 86.0, 2.2, 2.53, 0.26, 1.77, 3.9, 1.16, 3.14, 714.0], [2.0]], [[12.08, 1.13, 2.51, 24.0, 78.0, 2.0, 1.58, 0.4, 1.4, 2.2, 1.31, 2.72, 630.0], [2.0]], [[13.05, 3.86, 2.32, 22.5, 85.0, 1.65, 1.59, 0.61, 1.62, 4.8, 0.84, 2.01, 515.0], [2.0]], [[11.84, 0.89, 2.58, 18.0, 94.0, 2.2, 2.21, 0.22, 2.35, 3.05, 0.79, 3.08, 520.0], [2.0]], [[12.67, 0.98, 2.24, 18.0, 99.0, 2.2, 1.94, 0.3, 1.46, 2.62, 1.23, 3.16, 450.0], [2.0]], [[12.16, 1.61, 2.31, 22.8, 90.0, 1.78, 1.69, 0.43, 1.56, 2.45, 1.33, 2.26, 495.0], [2.0]], [[11.65, 1.67, 2.62, 26.0, 88.0, 1.92, 1.61, 0.4, 1.34, 2.6, 1.36, 3.21, 562.0], [2.0]], [[11.64, 2.06, 2.46, 21.6, 84.0, 1.95, 1.69, 0.48, 1.35, 2.8, 1.0, 2.75, 680.0], [2.0]], [[12.08, 1.33, 2.3, 23.6, 70.0, 2.2, 1.59, 0.42, 1.38, 1.74, 1.07, 3.21, 625.0], [2.0]], [[12.08, 1.83, 2.32, 18.5, 81.0, 1.6, 1.5, 0.52, 1.64, 2.4, 1.08, 2.27, 480.0], [2.0]], [[12.0, 1.51, 2.42, 22.0, 86.0, 1.45, 1.25, 0.5, 1.63, 3.6, 1.05, 2.65, 450.0], [2.0]], [[12.69, 1.53, 2.26, 20.7, 80.0, 1.38, 1.46, 0.58, 1.62, 3.05, 0.96, 2.06, 495.0], [2.0]], [[12.29, 2.83, 2.22, 18.0, 88.0, 2.45, 2.25, 0.25, 1.99, 2.15, 1.15, 3.3, 290.0], [2.0]], [[11.62, 1.99, 2.28, 18.0, 98.0, 3.02, 2.26, 0.17, 1.35, 3.25, 1.16, 2.96, 345.0], [2.0]], [[12.47, 1.52, 2.2, 19.0, 162.0, 2.5, 2.27, 0.32, 3.28, 2.6, 1.16, 2.63, 937.0], [2.0]], [[11.81, 2.12, 2.74, 21.5, 134.0, 1.6, 0.99, 0.14, 1.56, 2.5, 0.95, 2.26, 625.0], [2.0]], [[12.29, 1.41, 1.98, 16.0, 85.0, 2.55, 2.5, 0.29, 1.77, 2.9, 1.23, 2.74, 428.0], [2.0]], [[12.37, 1.07, 2.1, 18.5, 88.0, 3.52, 3.75, 0.24, 1.95, 4.5, 1.04, 2.77, 660.0], [2.0]], [[12.29, 3.17, 2.21, 18.0, 88.0, 2.85, 2.99, 0.45, 2.81, 2.3, 1.42, 2.83, 406.0], [2.0]], [[12.08, 2.08, 1.7, 17.5, 97.0, 2.23, 2.17, 0.26, 1.4, 3.3, 1.27, 2.96, 710.0], [2.0]], [[12.6, 1.34, 1.9, 18.5, 88.0, 1.45, 1.36, 0.29, 1.35, 2.45, 1.04, 2.77, 562.0], [2.0]], [[12.34, 2.45, 2.46, 21.0, 98.0, 2.56, 2.11, 0.34, 1.31, 2.8, 0.8, 3.38, 438.0], [2.0]], [[11.82, 1.72, 1.88, 19.5, 86.0, 2.5, 1.64, 0.37, 1.42, 2.06, 0.94, 2.44, 415.0], [2.0]], [[12.51, 1.73, 1.98, 20.5, 85.0, 2.2, 1.92, 0.32, 1.48, 2.94, 1.04, 3.57, 672.0], [2.0]], [[12.42, 2.55, 2.27, 22.0, 90.0, 1.68, 1.84, 0.66, 1.42, 2.7, 0.86, 3.3, 315.0], [2.0]], [[12.25, 1.73, 2.12, 19.0, 80.0, 1.65, 2.03, 0.37, 1.63, 3.4, 1.0, 3.17, 510.0], [2.0]], [[12.72, 1.75, 2.28, 22.5, 84.0, 1.38, 1.76, 0.48, 1.63, 3.3, 0.88, 2.42, 488.0], [2.0]], [[12.22, 1.29, 1.94, 19.0, 92.0, 2.36, 2.04, 0.39, 2.08, 2.7, 0.86, 3.02, 312.0], [2.0]], [[11.61, 1.35, 2.7, 20.0, 94.0, 2.74, 2.92, 0.29, 2.49, 2.65, 0.96, 3.26, 680.0], [2.0]], [[11.46, 3.74, 1.82, 19.5, 107.0, 3.18, 2.58, 0.24, 3.58, 2.9, 0.75, 2.81, 562.0], [2.0]], [[12.52, 2.43, 2.17, 21.0, 88.0, 2.55, 2.27, 0.26, 1.22, 2.0, 0.9, 2.78, 325.0], [2.0]], [[11.76, 2.68, 2.92, 20.0, 103.0, 1.75, 2.03, 0.6, 1.05, 3.8, 1.23, 2.5, 607.0], [2.0]], [[11.41, 0.74, 2.5, 21.0, 88.0, 2.48, 2.01, 0.42, 1.44, 3.08, 1.1, 2.31, 434.0], [2.0]], [[12.08, 1.39, 2.5, 22.5, 84.0, 2.56, 2.29, 0.43, 1.04, 2.9, 0.93, 3.19, 385.0], [2.0]], [[11.03, 1.51, 2.2, 21.5, 85.0, 2.46, 2.17, 0.52, 2.01, 1.9, 1.71, 2.87, 407.0], [2.0]], [[11.82, 1.47, 1.99, 20.8, 86.0, 1.98, 1.6, 0.3, 1.53, 1.95, 0.95, 3.33, 495.0], [2.0]], [[12.42, 1.61, 2.19, 22.5, 108.0, 2.0, 2.09, 0.34, 1.61, 2.06, 1.06, 2.96, 345.0], [2.0]], [[12.77, 3.43, 1.98, 16.0, 80.0, 1.63, 1.25, 0.43, 0.83, 3.4, 0.7, 2.12, 372.0], [2.0]], [[12.0, 3.43, 2.0, 19.0, 87.0, 2.0, 1.64, 0.37, 1.87, 1.28, 0.93, 3.05, 564.0], [2.0]], [[11.45, 2.4, 2.42, 20.0, 96.0, 2.9, 2.79, 0.32, 1.83, 3.25, 0.8, 3.39, 625.0], [2.0]], [[11.56, 2.05, 3.23, 28.5, 119.0, 3.18, 5.08, 0.47, 1.87, 6.0, 0.93, 3.69, 465.0], [2.0]], [[12.42, 4.43, 2.73, 26.5, 102.0, 2.2, 2.13, 0.43, 1.71, 2.08, 0.92, 3.12, 365.0], [2.0]], [[13.05, 5.8, 2.13, 21.5, 86.0, 2.62, 2.65, 0.3, 2.01, 2.6, 0.73, 3.1, 380.0], [2.0]], [[11.87, 4.31, 2.39, 21.0, 82.0, 2.86, 3.03, 0.21, 2.91, 2.8, 0.75, 3.64, 380.0], [2.0]], [[12.07, 2.16, 2.17, 21.0, 85.0, 2.6, 2.65, 0.37, 1.35, 2.76, 0.86, 3.28, 378.0], [2.0]], [[12.43, 1.53, 2.29, 21.5, 86.0, 2.74, 3.15, 0.39, 1.77, 3.94, 0.69, 2.84, 352.0], [2.0]], [[11.79, 2.13, 2.78, 28.5, 92.0, 2.13, 2.24, 0.58, 1.76, 3.0, 0.97, 2.44, 466.0], [2.0]], [[12.37, 1.63, 2.3, 24.5, 88.0, 2.22, 2.45, 0.4, 1.9, 2.12, 0.89, 2.78, 342.0], [2.0]], [[12.04, 4.3, 2.38, 22.0, 80.0, 2.1, 1.75, 0.42, 1.35, 2.6, 0.79, 2.57, 580.0], [2.0]], [[12.86, 1.35, 2.32, 18.0, 122.0, 1.51, 1.25, 0.21, 0.94, 4.1, 0.76, 1.29, 630.0], [3.0]], [[12.88, 2.99, 2.4, 20.0, 104.0, 1.3, 1.22, 0.24, 0.83, 5.4, 0.74, 1.42, 530.0], [3.0]], [[12.81, 2.31, 2.4, 24.0, 98.0, 1.15, 1.09, 0.27, 0.83, 5.7, 0.66, 1.36, 560.0], [3.0]], [[12.7, 3.55, 2.36, 21.5, 106.0, 1.7, 1.2, 0.17, 0.84, 5.0, 0.78, 1.29, 600.0], [3.0]], [[12.51, 1.24, 2.25, 17.5, 85.0, 2.0, 0.58, 0.6, 1.25, 5.45, 0.75, 1.51, 650.0], [3.0]], [[12.6, 2.46, 2.2, 18.5, 94.0, 1.62, 0.66, 0.63, 0.94, 7.1, 0.73, 1.58, 695.0], [3.0]], [[12.25, 4.72, 2.54, 21.0, 89.0, 1.38, 0.47, 0.53, 0.8, 3.85, 0.75, 1.27, 720.0], [3.0]], [[12.53, 5.51, 2.64, 25.0, 96.0, 1.79, 0.6, 0.63, 1.1, 5.0, 0.82, 1.69, 515.0], [3.0]], [[13.49, 3.59, 2.19, 19.5, 88.0, 1.62, 0.48, 0.58, 0.88, 5.7, 0.81, 1.82, 580.0], [3.0]], [[12.84, 2.96, 2.61, 24.0, 101.0, 2.32, 0.6, 0.53, 0.81, 4.92, 0.89, 2.15, 590.0], [3.0]], [[12.93, 2.81, 2.7, 21.0, 96.0, 1.54, 0.5, 0.53, 0.75, 4.6, 0.77, 2.31, 600.0], [3.0]], [[13.36, 2.56, 2.35, 20.0, 89.0, 1.4, 0.5, 0.37, 0.64, 5.6, 0.7, 2.47, 780.0], [3.0]], [[13.52, 3.17, 2.72, 23.5, 97.0, 1.55, 0.52, 0.5, 0.55, 4.35, 0.89, 2.06, 520.0], [3.0]], [[13.62, 4.95, 2.35, 20.0, 92.0, 2.0, 0.8, 0.47, 1.02, 4.4, 0.91, 2.05, 550.0], [3.0]], [[12.25, 3.88, 2.2, 18.5, 112.0, 1.38, 0.78, 0.29, 1.14, 8.21, 0.65, 2.0, 855.0], [3.0]], [[13.16, 3.57, 2.15, 21.0, 102.0, 1.5, 0.55, 0.43, 1.3, 4.0, 0.6, 1.68, 830.0], [3.0]], [[13.88, 5.04, 2.23, 20.0, 80.0, 0.98, 0.34, 0.4, 0.68, 4.9, 0.58, 1.33, 415.0], [3.0]], [[12.87, 4.61, 2.48, 21.5, 86.0, 1.7, 0.65, 0.47, 0.86, 7.65, 0.54, 1.86, 625.0], [3.0]], [[13.32, 3.24, 2.38, 21.5, 92.0, 1.93, 0.76, 0.45, 1.25, 8.42, 0.55, 1.62, 650.0], [3.0]], [[13.08, 3.9, 2.36, 21.5, 113.0, 1.41, 1.39, 0.34, 1.14, 9.4, 0.57, 1.33, 550.0], [3.0]], [[13.5, 3.12, 2.62, 24.0, 123.0, 1.4, 1.57, 0.22, 1.25, 8.6, 0.59, 1.3, 500.0], [3.0]], [[12.79, 2.67, 2.48, 22.0, 112.0, 1.48, 1.36, 0.24, 1.26, 10.8, 0.48, 1.47, 480.0], [3.0]], [[13.11, 1.9, 2.75, 25.5, 116.0, 2.2, 1.28, 0.26, 1.56, 7.1, 0.61, 1.33, 425.0], [3.0]], [[13.23, 3.3, 2.28, 18.5, 98.0, 1.8, 0.83, 0.61, 1.87, 10.52, 0.56, 1.51, 675.0], [3.0]], [[12.58, 1.29, 2.1, 20.0, 103.0, 1.48, 0.58, 0.53, 1.4, 7.6, 0.58, 1.55, 640.0], [3.0]], [[13.17, 5.19, 2.32, 22.0, 93.0, 1.74, 0.63, 0.61, 1.55, 7.9, 0.6, 1.48, 725.0], [3.0]], [[13.84, 4.12, 2.38, 19.5, 89.0, 1.8, 0.83, 0.48, 1.56, 9.01, 0.57, 1.64, 480.0], [3.0]], [[12.45, 3.03, 2.64, 27.0, 97.0, 1.9, 0.58, 0.63, 1.14, 7.5, 0.67, 1.73, 880.0], [3.0]], [[14.34, 1.68, 2.7, 25.0, 98.0, 2.8, 1.31, 0.53, 2.7, 13.0, 0.57, 1.96, 660.0], [3.0]], [[13.48, 1.67, 2.64, 22.5, 89.0, 2.6, 1.1, 0.52, 2.29, 11.75, 0.57, 1.78, 620.0], [3.0]], [[12.36, 3.83, 2.38, 21.0, 88.0, 2.3, 0.92, 0.5, 1.04, 7.65, 0.56, 1.58, 520.0], [3.0]], [[13.69, 3.26, 2.54, 20.0, 107.0, 1.83, 0.56, 0.5, 0.8, 5.88, 0.96, 1.82, 680.0], [3.0]], [[12.85, 3.27, 2.58, 22.0, 106.0, 1.65, 0.6, 0.6, 0.96, 5.58, 0.87, 2.11, 570.0], [3.0]], [[12.96, 3.45, 2.35, 18.5, 106.0, 1.39, 0.7, 0.4, 0.94, 5.28, 0.68, 1.75, 675.0], [3.0]], [[13.78, 2.76, 2.3, 22.0, 90.0, 1.35, 0.68, 0.41, 1.03, 9.58, 0.7, 1.68, 615.0], [3.0]], [[13.73, 4.36, 2.26, 22.5, 88.0, 1.28, 0.47, 0.52, 1.15, 6.62, 0.78, 1.75, 520.0], [3.0]], [[13.45, 3.7, 2.6, 23.0, 111.0, 1.7, 0.92, 0.43, 1.46, 10.68, 0.85, 1.56, 695.0], [3.0]], [[12.82, 3.37, 2.3, 19.5, 88.0, 1.48, 0.66, 0.4, 0.97, 10.26, 0.72, 1.75, 685.0], [3.0]], [[13.58, 2.58, 2.69, 24.5, 105.0, 1.55, 0.84, 0.39, 1.54, 8.66, 0.74, 1.8, 750.0], [3.0]], [[13.4, 4.6, 2.86, 25.0, 112.0, 1.98, 0.96, 0.27, 1.11, 8.5, 0.67, 1.92, 630.0], [3.0]], [[12.2, 3.03, 2.32, 19.0, 96.0, 1.25, 0.49, 0.4, 0.73, 5.5, 0.66, 1.83, 510.0], [3.0]], [[12.77, 2.39, 2.28, 19.5, 86.0, 1.39, 0.51, 0.48, 0.64, 9.899999, 0.57, 1.63, 470.0], [3.0]], [[14.16, 2.51, 2.48, 20.0, 91.0, 1.68, 0.7, 0.44, 1.24, 9.7, 0.62, 1.71, 660.0], [3.0]], [[13.71, 5.65, 2.45, 20.5, 95.0, 1.68, 0.61, 0.52, 1.06, 7.7, 0.64, 1.74, 740.0], [3.0]], [[13.4, 3.91, 2.48, 23.0, 102.0, 1.8, 0.75, 0.43, 1.41, 7.3, 0.7, 1.56, 750.0], [3.0]], [[13.27, 4.28, 2.26, 20.0, 120.0, 1.59, 0.69, 0.43, 1.35, 10.2, 0.59, 1.56, 835.0], [3.0]], [[13.17, 2.59, 2.37, 20.0, 120.0, 1.65, 0.68, 0.53, 1.46, 9.3, 0.6, 1.62, 840.0], [3.0]], [[14.13, 4.1, 2.74, 24.5, 96.0, 2.05, 0.76, 0.56, 1.35, 9.2, 0.61, 1.6, 560.0], [3.0]]]
network normalised training data:
 [[[0.9566160520607376, 0.19169960474308304, 0.572192513368984, 0.2577319587628866, 0.6195652173913043, 0.6275862068965518, 0.5738396624472574, 0.2830188679245283, 0.5930599369085173, 0.37201365187713303, 0.4552845528455285, 0.9706959706959706, 0.5613409415121255], [1.0]], [[0.8821402747650036, 0.2055335968379447, 0.4171122994652407, 0.030927835051546376, 0.32608695652173914, 0.5758620689655173, 0.510548523206751, 0.2452830188679245, 0.2744479495268139, 0.26450511945392485, 0.4634146341463415, 0.7802197802197801, 0.550641940085592], [1.0]], [[0.8792480115690529, 0.32015810276679846, 0.7005347593582887, 0.4123711340206187, 0.33695652173913043, 0.6275862068965518, 0.6118143459915611, 0.320754716981132, 0.7570977917981072, 0.3754266211604095, 0.4471544715447155, 0.6959706959706959, 0.6469329529243938], [1.0]], [[0.9667389732465654, 0.23913043478260873, 0.6096256684491979, 0.31958762886597947, 0.46739130434782605, 0.9896551724137932, 0.6645569620253164, 0.2075471698113207, 0.5583596214511042, 0.5563139931740614, 0.3089430894308943, 0.7985347985347986, 0.8573466476462197], [1.0]], [[0.8850325379609545, 0.36561264822134387, 0.8074866310160428, 0.5360824742268042, 0.5217391304347826, 0.6275862068965518, 0.4957805907172995, 0.490566037735849, 0.444794952681388, 0.2593856655290102, 0.4552845528455285, 0.6080586080586081, 0.325962910128388], [1.0]], [[0.9544468546637743, 0.20158102766798422, 0.5828877005347595, 0.23711340206185566, 0.45652173913043476, 0.7896551724137931, 0.6434599156118144, 0.39622641509433965, 0.4921135646687697, 0.46672354948805456, 0.4634146341463415, 0.5787545787545787, 0.8359486447931527], [1.0]], [[0.9681851048445409, 0.22332015810276684, 0.5828877005347595, 0.2061855670103093, 0.2826086956521739, 0.5241379310344828, 0.459915611814346, 0.320754716981132, 0.4952681388012618, 0.33873720136518765, 0.43902439024390244, 0.8461538461538461, 0.7218259629101285], [1.0]], [[0.9443239334779465, 0.27865612648221344, 0.6684491978609625, 0.36082474226804134, 0.5543478260869565, 0.5586206896551725, 0.45780590717299574, 0.3396226415094339, 0.26498422712933756, 0.3216723549488054, 0.47154471544715454, 0.8461538461538461, 0.7253922967189729], [1.0]], [[1.0, 0.17786561264822134, 0.4331550802139037, 0.17525773195876293, 0.2934782608695652, 0.6275862068965518, 0.5569620253164557, 0.3018867924528301, 0.4952681388012618, 0.33447098976109213, 0.48780487804878053, 0.5787545787545787, 0.5470756062767476], [1.0]], [[0.9298626174981923, 0.1205533596837945, 0.48663101604278075, 0.2783505154639176, 0.30434782608695654, 0.6896551724137931, 0.5928270042194093, 0.16981132075471694, 0.45425867507886436, 0.5068259385665528, 0.43089430894308944, 0.8351648351648351, 0.5470756062767476], [1.0]], [[0.9472161966738973, 0.2806324110671937, 0.5026737967914437, 0.3814432989690722, 0.3804347826086956, 0.6793103448275863, 0.6286919831223629, 0.16981132075471694, 0.6214511041009463, 0.3813993174061433, 0.6260162601626016, 0.6959706959706959, 0.8787446504992867], [1.0]], [[0.9486623282718727, 0.14624505928853757, 0.5133689839572192, 0.31958762886597947, 0.2717391304347826, 0.4206896551724139, 0.4409282700421941, 0.2452830188679245, 0.3659305993690852, 0.31740614334470985, 0.5609756097560975, 0.5677655677655676, 0.7146932952924394], [1.0]], [[0.9219088937093276, 0.19565217391304351, 0.5614973262032086, 0.2783505154639176, 0.20652173913043478, 0.5586206896551725, 0.510548523206751, 0.3018867924528301, 0.44164037854889593, 0.3686006825938566, 0.5447154471544715, 0.597069597069597, 0.7432239657631955], [1.0]], [[0.9942154736080984, 0.19565217391304351, 0.5508021390374332, 0.041237113402061897, 0.22826086956521738, 0.7310344827586208, 0.7067510548523206, 0.5660377358490565, 0.7570977917981072, 0.35153583617747436, 0.6260162601626016, 0.5347985347985348, 0.6219686162624822], [1.0]], [[0.9674620390455532, 0.22332015810276684, 0.5454545454545454, 0.07216494845360827, 0.34782608695652173, 0.8, 0.6962025316455696, 0.3018867924528301, 0.8044164037854888, 0.530716723549488, 0.5853658536585366, 0.6336996336996337, 0.9051355206847361], [1.0]], [[0.9132321041214752, 0.2114624505928854, 0.716577540106952, 0.3402061855670103, 0.45652173913043476, 0.6448275862068966, 0.5421940928270043, 0.320754716981132, 0.3312302839116719, 0.5136518771331057, 0.6504065040650406, 0.5897435897435896, 0.7360912981455064], [1.0]], [[0.9616775126536515, 0.233201581027668, 0.7272727272727274, 0.48453608247422686, 0.5434782608695652, 0.6275862068965518, 0.5907172995780591, 0.3773584905660377, 0.4921135646687697, 0.4197952218430034, 0.47967479674796754, 0.5054945054945055, 0.7146932952924394], [1.0]], [[0.9276934201012292, 0.1640316205533597, 0.6737967914438503, 0.48453608247422686, 0.4891304347826087, 0.6793103448275863, 0.6455696202531644, 0.5094339622641509, 0.41324921135646686, 0.45392491467576784, 0.5284552845528454, 0.4761904761904761, 0.6077032810271041], [1.0]], [[0.9537237888647867, 0.1679841897233202, 0.5989304812834224, 0.3041237113402062, 0.41304347826086957, 0.8, 0.7573839662447257, 0.3584905660377358, 0.4574132492113565, 0.6331058020477814, 0.6097560975609756, 0.5677655677655676, 1.0], [1.0]], [[0.9139551699204628, 0.4664031620553361, 0.6417112299465241, 0.23711340206185566, 0.5, 0.5931034482758621, 0.5675105485232067, 0.07547169811320756, 0.3943217665615142, 0.32593856655290093, 0.39024390243902435, 0.7655677655677655, 0.4044222539229672], [1.0]], [[0.9443239334779465, 0.17588932806324112, 0.4919786096256683, 0.2783505154639176, 0.6086956521739131, 0.6965517241379311, 0.5970464135021096, 0.2075471698113207, 0.5331230283911672, 0.3728668941979522, 0.4959349593495936, 0.8937728937728937, 0.3580599144079886], [1.0]], [[0.8626174981923355, 0.6047430830039525, 0.6898395721925134, 0.4123711340206187, 0.34782608695652173, 0.49310344827586217, 0.43670886075949367, 0.22641509433962262, 0.4952681388012618, 0.27474402730375425, 0.4471544715447155, 0.8241758241758241, 0.3509272467902996], [1.0]], [[0.9190166305133768, 0.22134387351778662, 0.53475935828877, 0.30927835051546404, 0.33695652173913043, 0.5620689655172414, 0.5358649789029535, 0.2641509433962264, 0.4037854889589905, 0.21501706484641633, 0.5121951219512196, 1.0, 0.5399429386590585], [1.0]], [[0.8568329718004338, 0.16996047430830044, 0.6203208556149733, 0.37113402061855677, 0.2717391304347826, 0.5172413793103449, 0.4282700421940928, 0.2452830188679245, 0.3312302839116719, 0.22610921501706485, 0.4959349593495936, 0.8644688644688644, 0.5256776034236804], [1.0]], [[0.9038322487346349, 0.2114624505928854, 0.6684491978609625, 0.48453608247422686, 0.2826086956521739, 0.5344827586206896, 0.4789029535864978, 0.2830188679245283, 0.3943217665615142, 0.19112627986348124, 0.5203252032520326, 0.934065934065934, 0.4044222539229672], [1.0]], [[0.871294287780188, 0.25889328063241107, 0.9946524064171124, 0.7422680412371134, 0.5869565217391304, 0.5689655172413793, 0.4936708860759494, 0.641509433962264, 0.47634069400630913, 0.19624573378839588, 0.5284552845528454, 0.706959706959707, 0.3937232524964337], [1.0]], [[0.8958785249457701, 0.20355731225296445, 0.6737967914438503, 0.28350515463917536, 0.25, 0.6448275862068966, 0.5485232067510548, 0.39622641509433965, 0.3280757097791798, 0.30034129692832756, 0.3577235772357724, 0.7142857142857143, 0.6540656205420827], [1.0]], [[0.8893709327548808, 0.19367588932806326, 0.4171122994652407, 0.3298969072164949, 0.2608695652173913, 0.48965517241379314, 0.390295358649789, 0.2641509433962264, 0.2965299684542587, 0.22781569965870305, 0.43902439024390244, 0.5494505494505494, 0.7182596291012839], [1.0]], [[0.93058568329718, 0.22924901185770752, 0.7700534759358287, 0.4536082474226804, 0.40217391304347827, 0.6793103448275863, 0.5548523206751055, 0.45283018867924524, 0.42586750788643535, 0.27474402730375425, 0.6260162601626016, 0.7802197802197801, 0.4543509272467903], [1.0]], [[0.9414316702819957, 0.1857707509881423, 0.4545454545454545, 0.2783505154639176, 0.2826086956521739, 0.5758620689655173, 0.41983122362869196, 0.2452830188679245, 0.4952681388012618, 0.2918088737201365, 0.4552845528455285, 0.8498168498168497, 0.5399429386590585], [1.0]], [[0.9204627621113521, 0.15019762845849804, 0.716577540106952, 0.6134020618556701, 0.33695652173913043, 0.6965517241379311, 0.6139240506329113, 0.3018867924528301, 0.6214511041009463, 0.37713310580204773, 0.5772357723577235, 0.5274725274725274, 0.7182596291012839], [1.0]], [[0.9096167751265365, 0.18181818181818182, 0.53475935828877, 0.4381443298969073, 0.3913043478260869, 0.6482758620689655, 0.6012658227848101, 0.16981132075471694, 0.48580441640378547, 0.47952218430034127, 0.4959349593495936, 0.5897435897435896, 0.8823109843081313], [1.0]], [[0.9168474331164136, 0.21541501976284588, 0.53475935828877, 0.3402061855670103, 0.3695652173913043, 0.496551724137931, 0.4957805907172995, 0.5471698113207546, 0.4921135646687697, 0.21843003412969278, 0.6097560975609756, 0.5860805860805861, 0.5078459343794579], [1.0]], [[0.9226319595083152, 0.15612648221343875, 0.716577540106952, 0.4587628865979382, 0.6739130434782609, 0.6793103448275863, 0.5063291139240507, 0.6981132075471698, 0.2965299684542587, 0.35153583617747436, 0.6260162601626016, 0.6336996336996337, 0.6825962910128388], [1.0]], [[0.9045553145336226, 0.20948616600790518, 0.6898395721925134, 0.43298969072164956, 0.43478260869565216, 0.47241379310344833, 0.46202531645569617, 0.3018867924528301, 0.35646687697160884, 0.24914675767918085, 0.5040650406504066, 0.5860805860805861, 0.5827389443651926], [1.0]], [[0.9023861171366595, 0.2114624505928854, 0.5614973262032086, 0.5103092783505155, 0.32608695652173914, 0.5931034482758621, 0.5569620253164557, 0.2452830188679245, 0.4574132492113565, 0.32593856655290093, 0.4552845528455285, 0.8058608058608059, 0.4579172610556348], [1.0]], [[0.8879248011569052, 0.17786561264822134, 0.7914438502673796, 0.2525773195876289, 0.43478260869565216, 0.5586206896551725, 0.4936708860759494, 0.39622641509433965, 0.2996845425867508, 0.28327645051194533, 0.4959349593495936, 0.553113553113553, 0.42938659058487877], [1.0]], [[0.871294287780188, 0.1798418972332016, 0.6363636363636362, 0.3814432989690722, 0.30434782608695654, 0.5068965517241381, 0.4409282700421941, 0.3018867924528301, 0.3249211356466877, 0.2534129692832764, 0.5203252032520326, 0.4542124542124541, 0.5898716119828816], [1.0]], [[0.8727404193781635, 0.15019762845849804, 0.39572192513368987, 0.2525773195876289, 0.30434782608695654, 0.48965517241379314, 0.48523206751054854, 0.2830188679245283, 0.30283911671924296, 0.20648464163822522, 0.5691056910569106, 0.5201465201465201, 0.5292439372325249], [1.0]], [[0.9558929862617499, 0.6422924901185771, 0.6149732620320855, 0.13402061855670103, 0.6304347826086957, 0.6965517241379311, 0.5696202531645569, 0.1320754716981132, 0.526813880126183, 0.32593856655290093, 0.33333333333333337, 0.8278388278388277, 0.3437945791726106], [1.0]], [[0.9081706435285611, 0.19169960474308304, 0.5080213903743316, 0.288659793814433, 0.5108695652173912, 0.7482758620689656, 0.6223628691983122, 0.39622641509433965, 0.6088328075709779, 0.41382252559726956, 0.38211382113821135, 0.7728937728937728, 0.36875891583452214], [1.0]], [[0.8973246565437455, 0.6126482213438735, 0.40641711229946526, 0.42268041237113413, 0.21739130434782608, 0.5068965517241381, 0.4936708860759494, 0.2641509433962264, 0.33753943217665616, 0.25597269624573377, 0.34959349593495936, 0.6336996336996337, 0.5399429386590585], [1.0]], [[0.9313087490961678, 0.2272727272727273, 0.657754010695187, 0.22680412371134023, 0.33695652173913043, 0.7827586206896552, 0.6793248945147679, 0.07547169811320756, 0.4069400630914826, 0.3540955631399317, 0.3252032520325203, 0.8388278388278387, 0.5827389443651926], [1.0]], [[0.8850325379609545, 0.6403162055335969, 0.49732620320855614, 0.3556701030927836, 0.358695652173913, 0.5724137931034483, 0.48312236286919824, 0.3584905660377358, 0.3943217665615142, 0.26279863481228666, 0.2764227642276422, 0.6336996336996337, 0.2867332382310984], [1.0]], [[0.871294287780188, 0.20355731225296445, 0.39572192513368987, 0.3298969072164949, 0.40217391304347827, 0.6965517241379311, 0.561181434599156, 0.2830188679245283, 0.5110410094637223, 0.3208191126279863, 0.3252032520325203, 0.7619047619047619, 0.4329529243937233], [1.0]], [[0.9551699204627622, 0.6521739130434783, 0.5775401069518716, 0.42783505154639173, 0.44565217391304346, 0.6448275862068966, 0.48734177215189867, 0.320754716981132, 0.26498422712933756, 0.3378839590443686, 0.3170731707317073, 0.7545787545787546, 0.5720399429386591], [1.0]], [[0.9674620390455532, 0.5632411067193676, 0.4919786096256683, 0.2783505154639176, 0.34782608695652173, 0.7827586206896552, 0.5970464135021096, 0.2641509433962264, 0.5615141955835962, 0.30887372013651876, 0.4552845528455285, 0.7948717948717948, 0.5613409415121255], [1.0]], [[0.9327548806941433, 0.1857707509881423, 0.40641711229946526, 0.2783505154639176, 0.33695652173913043, 0.7310344827586208, 0.6434599156118144, 0.15094339622641506, 0.5457413249211357, 0.4112627986348122, 0.34959349593495936, 0.7545787545787546, 0.5042796005706134], [1.0]], [[0.9472161966738973, 0.2529644268774704, 0.5561497326203207, 0.42268041237113413, 0.358695652173913, 0.6103448275862069, 0.5443037974683543, 0.3584905660377358, 0.6214511041009463, 0.4197952218430034, 0.47967479674796754, 0.5421245421245421, 0.557774607703281], [1.0]], [[0.935647143890094, 0.19565217391304351, 0.48663101604278075, 0.35051546391752575, 0.41304347826086957, 0.6551724137931034, 0.6751054852320675, 0.3584905660377358, 0.526813880126183, 0.6501706484641637, 0.5203252032520326, 0.6703296703296703, 0.7004279600570613], [1.0]], [[0.871294287780188, 0.19565217391304351, 0.36363636363636365, 0.09278350515463922, 0.2391304347826087, 0.6000000000000001, 0.6181434599156118, 0.07547169811320756, 0.7886435331230284, 0.5051194539249146, 0.5203252032520326, 0.6007326007326007, 0.6219686162624822], [1.0]], [[0.9276934201012292, 0.1798418972332016, 0.6631016042780749, 0.3402061855670103, 0.2608695652173913, 0.5068965517241381, 0.559071729957806, 0.16981132075471694, 0.5930599369085173, 0.3686006825938566, 0.6178861788617886, 0.7692307692307692, 0.7039942938659058], [1.0]], [[0.9269703543022415, 0.19960474308300397, 0.5668449197860962, 0.17525773195876293, 0.44565217391304346, 1.0, 0.7172995780590717, 0.3584905660377358, 0.4605678233438486, 0.4923208191126279, 0.43089430894308944, 0.7289377289377288, 0.6504992867332382], [1.0]], [[0.923355025307303, 0.22924901185770752, 0.7058823529411765, 0.3350515463917527, 0.4891304347826087, 0.6965517241379311, 0.5168776371308017, 0.490566037735849, 0.40063091482649843, 0.42832764505119447, 0.5284552845528454, 0.6080586080586081, 0.782453637660485], [1.0]], [[0.9211858279103399, 0.18379446640316208, 0.4759358288770053, 0.29896907216494845, 0.5217391304347826, 0.5586206896551725, 0.540084388185654, 0.15094339622641506, 0.38170347003154576, 0.3899317406143344, 0.3577235772357724, 0.706959706959707, 0.557774607703281], [1.0]], [[0.9081706435285611, 0.19565217391304351, 0.588235294117647, 0.5103092783505155, 0.5, 0.6827586206896552, 0.5147679324894514, 0.1320754716981132, 0.6435331230283912, 0.4240614334470989, 0.4065040650406504, 0.6446886446886446, 0.6005706134094151], [1.0]], [[0.9558929862617499, 0.18972332015810278, 0.5026737967914437, 0.2938144329896908, 0.5217391304347826, 0.7655172413793104, 0.561181434599156, 0.2452830188679245, 0.5110410094637223, 0.43515358361774736, 0.37398373983739835, 0.7472527472527473, 0.4935805991440799], [1.0]], [[0.8886478669558929, 0.2430830039525692, 0.7058823529411765, 0.31958762886597947, 0.34782608695652173, 0.6965517241379311, 0.609704641350211, 0.3396226415094339, 0.3943217665615142, 0.4027303754266211, 0.47967479674796754, 0.575091575091575, 0.7075606276747504], [1.0]], [[0.9197396963123645, 0.13636363636363638, 0.6096256684491979, 0.31443298969072164, 0.41304347826086957, 0.8344827586206897, 0.7025316455696202, 0.11320754716981131, 0.5141955835962145, 0.47098976109215007, 0.33333333333333337, 0.5860805860805861, 0.7182596291012839], [1.0]], [[0.8221258134490238, 0.03952569169960474, 0.0, 0.0, 0.19565217391304346, 0.3448275862068966, 0.04852320675105483, 0.2830188679245283, 0.003154574132492116, 0.057167235494880536, 0.4634146341463415, 0.20146520146520147, 0.17261055634807418], [1.0]], [[0.8192335502530731, 0.07114624505928857, 0.4919786096256683, 0.2783505154639176, 0.33695652173913043, 0.36896551724137927, 0.1582278481012658, 0.9433962264150942, 0.0, 0.16979522184300339, 0.6260162601626016, 0.14652014652014647, 0.2867332382310984], [1.0]], [[0.841648590021692, 0.12252964426877475, 0.3529411764705882, 0.31958762886597947, 0.32608695652173914, 0.35862068965517246, 0.2257383966244725, 0.7547169811320754, 0.06624605678233439, 0.3813993174061433, 0.4065040650406504, 0.11721611721611723, 0.12268188302425108], [1.0]], [[0.9161243673174259, 0.10079051383399211, 0.29946524064171115, 0.3814432989690722, 0.2608695652173913, 0.3862068965517242, 0.3059071729957806, 0.3584905660377358, 0.10094637223974763, 0.21501706484641633, 0.6097560975609756, 0.43589743589743585, 0.25106990014265335], [1.0]], [[0.8221258134490238, 0.07707509881422923, 0.4278074866310161, 0.43298969072164956, 0.18478260869565216, 0.8689655172413794, 0.5822784810126582, 0.11320754716981131, 0.4605678233438486, 0.2704778156996587, 0.6016260162601625, 0.5860805860805861, 0.10128388017118403], [1.0]], [[0.8076644974692697, 0.14031620553359686, 0.6256684491978608, 0.43298969072164956, 0.3695652173913043, 0.3137931034482759, 0.2974683544303797, 0.6037735849056604, 0.19558359621451107, 0.14249146757679182, 0.7886178861788617, 0.3516483516483516, 0.05492154065620542], [1.0]], [[0.8221258134490238, 0.09288537549407115, 0.6417112299465241, 0.38659793814433, 0.30434782608695654, 0.496551724137931, 0.48734177215189867, 0.45283018867924524, 0.526813880126183, 0.28327645051194533, 0.5772357723577235, 0.37728937728937717, 0.28530670470756064], [1.0]], [[0.8756326825741142, 0.053359683794466414, 0.18181818181818174, 0.22680412371134023, 0.08695652173913043, 0.6896551724137931, 0.5991561181434599, 0.2452830188679245, 0.5899053627760251, 0.3430034129692832, 0.5203252032520326, 0.6996336996336996, 0.15977175463623394], [1.0]], [[0.8221258134490238, 0.08498023715415019, 0.29946524064171115, 0.463917525773196, 0.08695652173913043, 0.3896551724137931, 0.35021097046413496, 0.2641509433962264, 0.19873817034700317, 0.2901023890784982, 0.5203252032520326, 0.8095238095238094, 0.16547788873038516], [1.0]], [[0.8922631959508316, 0.03952569169960474, 0.53475935828877, 0.3298969072164949, 0.43478260869565216, 0.5344827586206896, 0.20253164556962022, 0.7924528301886793, 0.003154574132492116, 0.16126279863481227, 0.43902439024390244, 0.2417582417582417, 0.33666191155492153], [1.0]], [[0.8105567606652206, 0.08893280632411067, 0.20855614973262027, 0.31958762886597947, 0.8804347826086957, 0.30000000000000004, 0.1983122362869198, 0.0188679245283019, 0.6593059936908516, 0.13395904436860068, 0.6504065040650406, 0.6593406593406592, 0.3138373751783167], [1.0]], [[0.8163412870571222, 0.17193675889328067, 0.4545454545454545, 0.5051546391752577, 0.358695652173913, 0.04137931034482763, 0.14345991561181431, 0.45283018867924524, 0.3312302839116719, 0.1510238907849829, 0.3463414634146342, 0.20146520146520147, 0.4222539229671897], [1.0]], [[0.9298626174981923, 0.15217391304347827, 0.7005347593582887, 0.7422680412371134, 0.17391304347826086, 0.6793103448275863, 0.5316455696202531, 0.15094339622641506, 0.4605678233438486, 0.1791808873720136, 0.7154471544715448, 0.6923076923076923, 0.09415121255349501], [1.0]], [[0.9031091829356471, 0.18181818181818182, 0.47058823529411775, 0.6907216494845362, 0.18478260869565216, 0.3103448275862069, 0.3164556962025316, 0.2641509433962264, 0.19558359621451107, 0.2098976109215017, 0.4065040650406504, 0.553113553113553, 0.1383737517831669], [1.0]], [[0.8669558929862617, 0.18379446640316208, 0.6631016042780749, 1.0, 0.75, 0.8, 0.5379746835443038, 0.15094339622641506, 0.4889589905362776, 0.17662116040955633, 0.6747967479674797, 0.8168498168498168, 0.5042796005706134], [1.0]], [[0.7924801156905279, 0.06916996047430833, 0.5026737967914437, 0.5360824742268042, 0.33695652173913043, 0.8275862068965517, 0.37974683544303794, 0.0, 0.39116719242902204, 0.16467576791808872, 0.4146341463414634, 0.6813186813186812, 0.43366619115549215], [1.0]], [[0.7707881417208966, 0.22529644268774704, 0.29946524064171115, 0.2783505154639176, 0.2934782608695652, 0.21724137931034487, 0.25949367088607594, 0.39622641509433965, 0.2334384858044164, 0.21501706484641633, 0.6097560975609756, 0.3186813186813187, 0.10699001426533523], [1.0]], [[0.8698481561822126, 0.031620553359683806, 0.18716577540106946, 0.2783505154639176, 0.17391304347826086, 0.33448275862068966, 0.3565400843881856, 0.2075471698113207, 0.3312302839116719, 0.28327645051194533, 0.5772357723577235, 0.4432234432234432, 0.08131241084165478], [1.0]], [[0.7838033261026753, 0.4249011857707511, 0.4652406417112299, 0.3814432989690722, 0.45652173913043476, 0.25517241379310346, 0.20675105485232065, 0.5660377358490565, 0.17034700315457413, 0.1168941979522184, 0.39024390243902435, 0.45787545787545786, 0.15834522111269617], [1.0]], [[0.8192335502530731, 0.049407114624505935, 0.31550802139037426, 0.2164948453608248, 0.717391304347826, 0.31724137931034485, 0.3185654008438818, 0.4150943396226414, 0.7413249211356465, 0.18088737201365188, 0.47154471544715454, 0.38095238095238093, 0.33666191155492153], [1.0]], [[0.8459869848156182, 0.6185770750988143, 0.5561497326203207, 0.6391752577319588, 0.33695652173913043, 0.6379310344827587, 0.4662447257383966, 0.5660377358490565, 0.48580441640378547, 0.1100682593856655, 0.5772357723577235, 0.6813186813186812, 0.1319543509272468], [1.0]], [[0.7953723788864787, 0.035573122529644285, 0.3422459893048128, 0.43298969072164956, 0.17391304347826086, 0.496551724137931, 0.4050632911392404, 0.320754716981132, 0.3217665615141956, 0.10409556313993173, 0.7317073170731706, 0.6776556776556777, 0.0], [1.0]], [[0.8474331164135938, 0.2114624505928854, 0.4491978609625669, 0.42268041237113413, 0.17391304347826086, 0.4206896551724139, 0.46202531645569617, 0.2452830188679245, 0.42902208201892744, 0.2235494880546075, 0.5528455284552845, 0.684981684981685, 0.3109843081312411], [1.0]], [[0.8011569052783803, 0.07707509881422923, 0.6149732620320855, 0.6907216494845362, 0.08695652173913043, 0.3517241379310345, 0.26160337552742613, 0.5094339622641509, 0.31230283911671924, 0.07849829351535836, 0.6747967479674797, 0.5311355311355311, 0.25106990014265335], [1.0]], [[0.871294287780188, 0.6166007905138341, 0.5133689839572192, 0.6134020618556701, 0.16304347826086957, 0.23103448275862068, 0.26371308016877637, 0.9056603773584905, 0.38170347003154576, 0.30034129692832756, 0.2926829268292683, 0.27106227106227093, 0.16904422253922968], [1.0]], [[0.7838033261026753, 0.029644268774703567, 0.6524064171122995, 0.3814432989690722, 0.2608695652173913, 0.4206896551724139, 0.3945147679324894, 0.16981132075471694, 0.61198738170347, 0.1510238907849829, 0.2520325203252033, 0.663003663003663, 0.17261055634807418], [1.0]], [[0.8438177874186551, 0.047430830039525695, 0.47058823529411775, 0.3814432989690722, 0.31521739130434784, 0.4206896551724139, 0.3375527426160337, 0.320754716981132, 0.3312302839116719, 0.11433447098976109, 0.6097560975609756, 0.6923076923076923, 0.12268188302425108], [1.0]], [[0.806941431670282, 0.17193675889328067, 0.5080213903743316, 0.6288659793814434, 0.21739130434782608, 0.2758620689655173, 0.28481012658227844, 0.5660377358490565, 0.3627760252365931, 0.09982935153583618, 0.6910569105691058, 0.3626373626373625, 0.15477888730385164], [1.0]], [[0.770065075921909, 0.18379446640316208, 0.6737967914438503, 0.7938144329896908, 0.19565217391304346, 0.32413793103448274, 0.26793248945147674, 0.5094339622641509, 0.29337539432176657, 0.11262798634812286, 0.7154471544715448, 0.7106227106227105, 0.20256776034236806], [1.0]], [[0.7693420101229212, 0.26086956521739135, 0.588235294117647, 0.5670103092783506, 0.15217391304347827, 0.33448275862068966, 0.28481012658227844, 0.6603773584905659, 0.2965299684542587, 0.12969283276450508, 0.42276422764227645, 0.5421245421245421, 0.2867332382310984], [1.0]], [[0.8011569052783803, 0.11660079051383403, 0.5026737967914437, 0.6701030927835053, 0.0, 0.4206896551724139, 0.26371308016877637, 0.5471698113207546, 0.305993690851735, 0.039249146757679175, 0.47967479674796754, 0.7106227106227105, 0.24750356633380885], [1.0]], [[0.8011569052783803, 0.21541501976284588, 0.5133689839572192, 0.4072164948453609, 0.11956521739130435, 0.2137931034482759, 0.24472573839662443, 0.7358490566037735, 0.38801261829652994, 0.09556313993174059, 0.48780487804878053, 0.3663003663003663, 0.14407988587731813], [1.0]], [[0.7953723788864787, 0.15217391304347827, 0.5668449197860962, 0.5876288659793815, 0.17391304347826086, 0.16206896551724137, 0.19198312236286916, 0.6981132075471698, 0.38485804416403785, 0.19795221843003413, 0.4634146341463415, 0.5054945054945055, 0.12268188302425108], [1.0]], [[0.8452639190166304, 0.15612648221343875, 0.4812834224598929, 0.520618556701031, 0.10869565217391304, 0.1379310344827586, 0.23628691983122357, 0.8490566037735847, 0.38170347003154576, 0.1510238907849829, 0.39024390243902435, 0.28937728937728935, 0.15477888730385164], [1.0]], [[0.8163412870571222, 0.41304347826086957, 0.4598930481283423, 0.3814432989690722, 0.19565217391304346, 0.5068965517241381, 0.40295358649789026, 0.22641509433962262, 0.49842271293375395, 0.07423208191126278, 0.5447154471544715, 0.7435897435897435, 0.008559201141226819], [1.0]], [[0.7678958785249458, 0.24703557312252966, 0.4919786096256683, 0.3814432989690722, 0.30434782608695654, 0.703448275862069, 0.4050632911392404, 0.07547169811320756, 0.2965299684542587, 0.16808873720136516, 0.5528455284552845, 0.619047619047619, 0.04778887303851641], [1.0]], [[0.829356471438901, 0.15415019762845852, 0.4491978609625669, 0.43298969072164956, 1.0, 0.5241379310344828, 0.4071729957805907, 0.3584905660377358, 0.9053627760252364, 0.11262798634812286, 0.5528455284552845, 0.49816849816849806, 0.47004279600570614], [1.0]], [[0.7816341287057122, 0.27272727272727276, 0.7379679144385027, 0.5618556701030929, 0.6956521739130435, 0.2137931034482759, 0.13713080168776368, 0.0188679245283019, 0.3627760252365931, 0.10409556313993173, 0.38211382113821135, 0.3626373626373625, 0.24750356633380885], [1.0]], [[0.8163412870571222, 0.1324110671936759, 0.33155080213903737, 0.2783505154639176, 0.16304347826086957, 0.5413793103448276, 0.45569620253164556, 0.3018867924528301, 0.42902208201892744, 0.13822525597269622, 0.6097560975609756, 0.5384615384615385, 0.10699001426533523], [1.0]], [[0.8221258134490238, 0.06521739130434785, 0.39572192513368987, 0.4072164948453609, 0.19565217391304346, 0.8758620689655173, 0.7194092827004219, 0.2075471698113207, 0.48580441640378547, 0.27474402730375425, 0.4552845528455285, 0.5494505494505494, 0.27246790299572043], [1.0]], [[0.8163412870571222, 0.48023715415019763, 0.4545454545454545, 0.3814432989690722, 0.19565217391304346, 0.6448275862068966, 0.559071729957806, 0.6037735849056604, 0.7570977917981072, 0.08703071672354946, 0.7642276422764227, 0.5714285714285714, 0.0912981455064194], [1.0]], [[0.8011569052783803, 0.2648221343873518, 0.18181818181818174, 0.3556701030927836, 0.2934782608695652, 0.4310344827586207, 0.38607594936708856, 0.2452830188679245, 0.31230283911671924, 0.1723549488054607, 0.6422764227642277, 0.619047619047619, 0.3081312410841655], [1.0]], [[0.8387563268257411, 0.11857707509881427, 0.28877005347593576, 0.4072164948453609, 0.19565217391304346, 0.16206896551724137, 0.2151898734177215, 0.3018867924528301, 0.2965299684542587, 0.09982935153583618, 0.4552845528455285, 0.5494505494505494, 0.20256776034236806], [1.0]], [[0.8199566160520607, 0.33794466403162066, 0.588235294117647, 0.5360824742268042, 0.30434782608695654, 0.5448275862068966, 0.3734177215189873, 0.39622641509433965, 0.28391167192429023, 0.12969283276450508, 0.2601626016260163, 0.7728937728937728, 0.11412268188302425], [1.0]], [[0.7823571945047, 0.19367588932806326, 0.2780748663101603, 0.4587628865979382, 0.17391304347826086, 0.5241379310344828, 0.27426160337552735, 0.45283018867924524, 0.31861198738170343, 0.06655290102389078, 0.37398373983739835, 0.4285714285714285, 0.09771754636233952], [1.0]], [[0.8322487346348518, 0.19565217391304351, 0.33155080213903737, 0.5103092783505155, 0.16304347826086957, 0.4206896551724139, 0.33333333333333326, 0.3584905660377358, 0.33753943217665616, 0.14163822525597267, 0.4552845528455285, 0.8424908424908424, 0.2810271041369472], [1.0]], [[0.8257411424439625, 0.3577075098814229, 0.48663101604278075, 0.5876288659793815, 0.21739130434782608, 0.2413793103448276, 0.3164556962025316, 1.0, 0.31861198738170343, 0.12116040955631399, 0.3089430894308943, 0.7435897435897435, 0.026390870185449358], [1.0]], [[0.8134490238611713, 0.19565217391304351, 0.40641711229946526, 0.43298969072164956, 0.10869565217391304, 0.23103448275862068, 0.3565400843881856, 0.45283018867924524, 0.38485804416403785, 0.18088737201365188, 0.42276422764227645, 0.6959706959706959, 0.16547788873038516], [1.0]], [[0.8474331164135938, 0.19960474308300397, 0.4919786096256683, 0.6134020618556701, 0.15217391304347827, 0.1379310344827586, 0.2995780590717299, 0.6603773584905659, 0.38485804416403785, 0.1723549488054607, 0.3252032520325203, 0.4212454212454212, 0.14978601997146934], [1.0]], [[0.8112798264642083, 0.10869565217391307, 0.3101604278074866, 0.43298969072164956, 0.2391304347826087, 0.47586206896551725, 0.3586497890295358, 0.490566037735849, 0.526813880126183, 0.12116040955631399, 0.3089430894308943, 0.641025641025641, 0.024251069900142655], [1.0]], [[0.767172812725958, 0.1205533596837945, 0.716577540106952, 0.48453608247422686, 0.2608695652173913, 0.606896551724138, 0.5443037974683543, 0.3018867924528301, 0.6561514195583596, 0.1168941979522184, 0.39024390243902435, 0.7289377289377288, 0.2867332382310984], [1.0]], [[0.7563268257411425, 0.5928853754940713, 0.2459893048128342, 0.4587628865979382, 0.40217391304347827, 0.7586206896551725, 0.47257383966244726, 0.2075471698113207, 1.0, 0.13822525597269622, 0.21951219512195122, 0.5641025641025641, 0.20256776034236806], [1.0]], [[0.8329718004338394, 0.33399209486166015, 0.4331550802139037, 0.5360824742268042, 0.19565217391304346, 0.5413793103448276, 0.4071729957805907, 0.2452830188679245, 0.2555205047318612, 0.0614334470989761, 0.34146341463414637, 0.553113553113553, 0.033523537803138374], [1.0]], [[0.7780187997107737, 0.38339920948616607, 0.8342245989304813, 0.48453608247422686, 0.358695652173913, 0.2655172413793104, 0.3565400843881856, 0.8867924528301885, 0.2018927444794953, 0.21501706484641633, 0.6097560975609756, 0.4505494505494505, 0.2346647646219686], [1.0]], [[0.752711496746204, 0.0, 0.6096256684491979, 0.5360824742268042, 0.19565217391304346, 0.5172413793103449, 0.35232067510548515, 0.5471698113207546, 0.3249211356466877, 0.15358361774744025, 0.5040650406504066, 0.38095238095238093, 0.11126961483594865], [1.0]], [[0.8011569052783803, 0.12845849802371542, 0.6096256684491979, 0.6134020618556701, 0.15217391304347827, 0.5448275862068966, 0.4113924050632911, 0.5660377358490565, 0.19873817034700317, 0.13822525597269622, 0.3658536585365854, 0.7032967032967032, 0.07631954350927247], [1.0]], [[0.7252349963846709, 0.15217391304347827, 0.4491978609625669, 0.5618556701030929, 0.16304347826086957, 0.5103448275862069, 0.38607594936708856, 0.7358490566037735, 0.5047318611987381, 0.05290102389078497, 1.0, 0.5860805860805861, 0.0920114122681883], [1.0]], [[0.7823571945047, 0.14426877470355734, 0.3368983957219251, 0.5257731958762888, 0.17391304347826086, 0.3448275862068966, 0.26582278481012656, 0.320754716981132, 0.35331230283911674, 0.057167235494880536, 0.38211382113821135, 0.7545787545787546, 0.15477888730385164], [1.0]], [[0.8257411424439625, 0.17193675889328067, 0.4438502673796791, 0.6134020618556701, 0.41304347826086957, 0.3517241379310345, 0.36919831223628685, 0.39622641509433965, 0.37854889589905366, 0.06655290102389078, 0.47154471544715454, 0.619047619047619, 0.04778887303851641], [1.0]], [[0.8510484454085322, 0.531620553359684, 0.33155080213903737, 0.2783505154639176, 0.10869565217391304, 0.22413793103448273, 0.19198312236286916, 0.5660377358490565, 0.13249211356466875, 0.18088737201365188, 0.17886178861788615, 0.31135531135531136, 0.06704707560627675], [1.0]], [[0.7953723788864787, 0.531620553359684, 0.3422459893048128, 0.43298969072164956, 0.18478260869565216, 0.3517241379310345, 0.27426160337552735, 0.45283018867924524, 0.4605678233438486, 0.0, 0.3658536585365854, 0.6520146520146519, 0.20399429386590587], [1.0]], [[0.7556037599421547, 0.3280632411067194, 0.5668449197860962, 0.48453608247422686, 0.2826086956521739, 0.6620689655172414, 0.5168776371308017, 0.3584905660377358, 0.44794952681388017, 0.16808873720136516, 0.2601626016260163, 0.7765567765567766, 0.24750356633380885], [1.0]], [[0.7635574837310196, 0.25889328063241107, 1.0, 0.9226804123711341, 0.532608695652174, 0.7586206896551725, 1.0, 0.641509433962264, 0.4605678233438486, 0.4027303754266211, 0.3658536585365854, 0.8864468864468864, 0.1333808844507846], [1.0]], [[0.8257411424439625, 0.7292490118577075, 0.7326203208556149, 0.8195876288659795, 0.34782608695652173, 0.4206896551724139, 0.3776371308016877, 0.5660377358490565, 0.41009463722397477, 0.06825938566552901, 0.3577235772357724, 0.6776556776556777, 0.06205420827389444], [1.0]], [[0.871294287780188, 1.0, 0.41176470588235287, 0.5618556701030929, 0.17391304347826086, 0.5655172413793105, 0.48734177215189867, 0.320754716981132, 0.5047318611987381, 0.11262798634812286, 0.2032520325203252, 0.6703296703296703, 0.07275320970042796], [1.0]], [[0.7859725234996384, 0.7055335968379446, 0.5508021390374332, 0.5360824742268042, 0.13043478260869565, 0.6482758620689655, 0.5675105485232067, 0.15094339622641506, 0.7886435331230284, 0.12969283276450508, 0.21951219512195122, 0.8681318681318682, 0.07275320970042796], [1.0]], [[0.8004338394793926, 0.2806324110671937, 0.4331550802139037, 0.5360824742268042, 0.16304347826086957, 0.5586206896551725, 0.48734177215189867, 0.45283018867924524, 0.2965299684542587, 0.12627986348122863, 0.3089430894308943, 0.7362637362637361, 0.07132667617689016], [1.0]], [[0.8264642082429501, 0.15612648221343875, 0.49732620320855614, 0.5618556701030929, 0.17391304347826086, 0.606896551724138, 0.5928270042194093, 0.490566037735849, 0.42902208201892744, 0.22696245733788395, 0.17073170731707313, 0.575091575091575, 0.052781740370898715], [1.0]], [[0.7801879971077368, 0.274703557312253, 0.7593582887700534, 0.9226804123711341, 0.2391304347826087, 0.39655172413793105, 0.4008438818565401, 0.8490566037735847, 0.42586750788643535, 0.14675767918088736, 0.3983739837398374, 0.4285714285714285, 0.1340941512125535], [1.0]], [[0.8221258134490238, 0.17588932806324112, 0.5026737967914437, 0.7164948453608249, 0.19565217391304346, 0.4275862068965518, 0.4451476793248945, 0.5094339622641509, 0.4700315457413249, 0.07167235494880546, 0.33333333333333337, 0.553113553113553, 0.0456490727532097], [1.0]], [[0.7982646420824294, 0.7035573122529645, 0.5454545454545454, 0.5876288659793815, 0.10869565217391304, 0.3862068965517242, 0.2974683544303797, 0.5471698113207546, 0.2965299684542587, 0.11262798634812286, 0.2520325203252033, 0.4761904761904761, 0.21540656205420827], [1.0]], [[0.8575560375994216, 0.1205533596837945, 0.5133689839572192, 0.3814432989690722, 0.5652173913043478, 0.1827586206896552, 0.19198312236286916, 0.15094339622641506, 0.167192429022082, 0.24061433447098968, 0.22764227642276424, 0.007326007326007332, 0.25106990014265335], [1.0]], [[0.859002169197397, 0.4446640316205534, 0.5561497326203207, 0.48453608247422686, 0.3695652173913043, 0.11034482758620692, 0.18565400843881852, 0.2075471698113207, 0.13249211356466875, 0.35153583617747436, 0.21138211382113822, 0.05494505494505491, 0.1797432239657632], [1.0]], [[0.853940708604483, 0.3102766798418973, 0.5561497326203207, 0.6907216494845362, 0.30434782608695654, 0.05862068965517239, 0.1582278481012658, 0.2641509433962264, 0.13249211356466875, 0.37713310580204773, 0.1463414634146342, 0.032967032967032996, 0.20114122681883026], [1.0]], [[0.8459869848156182, 0.5553359683794467, 0.53475935828877, 0.5618556701030929, 0.3913043478260869, 0.2482758620689655, 0.1814345991561181, 0.07547169811320756, 0.13564668769716087, 0.31740614334470985, 0.24390243902439027, 0.007326007326007332, 0.2296718972895863], [1.0]], [[0.8322487346348518, 0.09881422924901187, 0.4759358288770053, 0.3556701030927836, 0.16304347826086957, 0.3517241379310345, 0.05063291139240504, 0.8867924528301885, 0.26498422712933756, 0.35580204778156993, 0.21951219512195122, 0.0879120879120879, 0.2653352353780314], [1.0]], [[0.8387563268257411, 0.3399209486166008, 0.4491978609625669, 0.4072164948453609, 0.2608695652173913, 0.22068965517241385, 0.06751054852320675, 0.9433962264150942, 0.167192429022082, 0.49658703071672344, 0.2032520325203252, 0.11355311355311357, 0.29743223965763194], [1.0]], [[0.8134490238611713, 0.7865612648221344, 0.6310160427807486, 0.5360824742268042, 0.20652173913043478, 0.1379310344827586, 0.02742616033755273, 0.7547169811320754, 0.12302839116719244, 0.21928327645051196, 0.21951219512195122, 0.0, 0.3152639087018545], [1.0]], [[0.8336948662328272, 0.9426877470355731, 0.6844919786096257, 0.7422680412371134, 0.2826086956521739, 0.27931034482758627, 0.05485232067510547, 0.9433962264150942, 0.21766561514195587, 0.31740614334470985, 0.2764227642276422, 0.1538461538461538, 0.16904422253922968], [1.0]], [[0.9031091829356471, 0.5632411067193676, 0.4438502673796791, 0.4587628865979382, 0.19565217391304346, 0.22068965517241385, 0.02953586497890294, 0.8490566037735847, 0.14826498422712933, 0.37713310580204773, 0.26829268292682934, 0.20146520146520147, 0.21540656205420827], [1.0]], [[0.8561099060014461, 0.43873517786561267, 0.6684491978609625, 0.6907216494845362, 0.33695652173913043, 0.46206896551724136, 0.05485232067510547, 0.7547169811320754, 0.12618296529968456, 0.31058020477815695, 0.33333333333333337, 0.3223443223443223, 0.2225392296718973], [1.0]], [[0.8626174981923355, 0.40909090909090917, 0.716577540106952, 0.5360824742268042, 0.2826086956521739, 0.1931034482758621, 0.033755274261603366, 0.7547169811320754, 0.10725552050473186, 0.28327645051194533, 0.23577235772357727, 0.38095238095238093, 0.2296718972895863], [1.0]], [[0.8937093275488069, 0.3596837944664032, 0.5294117647058824, 0.48453608247422686, 0.20652173913043478, 0.14482758620689654, 0.033755274261603366, 0.45283018867924524, 0.07255520504731862, 0.3686006825938566, 0.17886178861788615, 0.4395604395604396, 0.3580599144079886], [1.0]], [[0.9052783803326102, 0.48023715415019763, 0.7272727272727274, 0.6649484536082475, 0.2934782608695652, 0.19655172413793107, 0.03797468354430379, 0.6981132075471698, 0.04416403785488961, 0.2619453924914675, 0.33333333333333337, 0.28937728937728935, 0.17261055634807418], [1.0]], [[0.9125090383224873, 0.8320158102766799, 0.5294117647058824, 0.48453608247422686, 0.2391304347826087, 0.3517241379310345, 0.0970464135021097, 0.641509433962264, 0.19242902208201895, 0.2662116040955631, 0.34959349593495936, 0.28571428571428564, 0.19400855920114124], [1.0]], [[0.8134490238611713, 0.6205533596837944, 0.4491978609625669, 0.4072164948453609, 0.45652173913043476, 0.1379310344827586, 0.09282700421940927, 0.3018867924528301, 0.23028391167192427, 0.591296928327645, 0.13821138211382117, 0.2673992673992674, 0.4115549215406562], [1.0]], [[0.8792480115690529, 0.5592885375494072, 0.42245989304812825, 0.5360824742268042, 0.34782608695652173, 0.17931034482758623, 0.04430379746835443, 0.5660377358490565, 0.28075709779179814, 0.2320819112627986, 0.09756097560975609, 0.15018315018315015, 0.3937232524964337], [1.0]], [[0.9313087490961678, 0.8498023715415021, 0.4652406417112299, 0.48453608247422686, 0.10869565217391304, 0.0, 0.0, 0.5094339622641509, 0.08517350157728708, 0.30887372013651876, 0.08130081300813007, 0.021978021978021997, 0.09771754636233952], [1.0]], [[0.8582791033984092, 0.7648221343873519, 0.5989304812834224, 0.5618556701030929, 0.17391304347826086, 0.2482758620689655, 0.06540084388185653, 0.641509433962264, 0.14195583596214512, 0.5435153583617747, 0.04878048780487809, 0.21611721611721613, 0.24750356633380885], [1.0]], [[0.8908170643528561, 0.4940711462450593, 0.5454545454545454, 0.5618556701030929, 0.2391304347826087, 0.3275862068965517, 0.08860759493670885, 0.6037735849056604, 0.26498422712933756, 0.6092150170648464, 0.0569105691056911, 0.12820512820512822, 0.2653352353780314], [1.0]], [[0.8734634851771511, 0.624505928853755, 0.53475935828877, 0.5618556701030929, 0.46739130434782605, 0.1482758620689655, 0.22151898734177208, 0.39622641509433965, 0.23028391167192427, 0.6928327645051194, 0.07317073170731704, 0.021978021978021997, 0.19400855920114124], [1.0]], [[0.9038322487346349, 0.4703557312252965, 0.6737967914438503, 0.6907216494845362, 0.5760869565217391, 0.14482758620689654, 0.25949367088607594, 0.16981132075471694, 0.26498422712933756, 0.6245733788395903, 0.08943089430894308, 0.010989010989010999, 0.15834522111269617], [1.0]], [[0.8524945770065075, 0.3814229249011858, 0.5989304812834224, 0.5876288659793815, 0.45652173913043476, 0.1724137931034483, 0.2151898734177215, 0.2075471698113207, 0.26813880126182965, 0.8122866894197953, 0.0, 0.07326007326007324, 0.14407988587731813], [1.0]], [[0.8756326825741142, 0.22924901185770752, 0.7433155080213903, 0.7680412371134021, 0.5, 0.4206896551724139, 0.1983122362869198, 0.2452830188679245, 0.3627760252365931, 0.49658703071672344, 0.10569105691056911, 0.021978021978021997, 0.10485021398002853], [1.0]], [[0.8843094721619668, 0.5059288537549407, 0.4919786096256683, 0.4072164948453609, 0.30434782608695654, 0.28275862068965524, 0.10337552742616031, 0.9056603773584905, 0.4605678233438486, 0.78839590443686, 0.06504065040650413, 0.0879120879120879, 0.28316690442225395], [1.0]], [[0.8373101952277657, 0.10869565217391307, 0.39572192513368987, 0.48453608247422686, 0.358695652173913, 0.1724137931034483, 0.05063291139240504, 0.7547169811320754, 0.31230283911671924, 0.5392491467576791, 0.08130081300813007, 0.10256410256410256, 0.2582025677603424], [1.0]], [[0.8799710773680405, 0.8794466403162057, 0.5133689839572192, 0.5876288659793815, 0.25, 0.2620689655172414, 0.061181434599156106, 0.9056603773584905, 0.359621451104101, 0.5648464163822525, 0.09756097560975609, 0.0769230769230769, 0.318830242510699], [1.0]], [[0.928416485900217, 0.6679841897233202, 0.5454545454545454, 0.4587628865979382, 0.20652173913043478, 0.28275862068965524, 0.10337552742616031, 0.6603773584905659, 0.3627760252365931, 0.6595563139931739, 0.07317073170731704, 0.13553113553113547, 0.14407988587731813], [1.0]], [[0.8279103398409254, 0.45256916996047436, 0.6844919786096257, 0.845360824742268, 0.2934782608695652, 0.31724137931034485, 0.05063291139240504, 0.9433962264150942, 0.23028391167192427, 0.530716723549488, 0.1544715447154472, 0.16849816849816848, 0.42938659058487877], [1.0]], [[0.9645697758496024, 0.1857707509881423, 0.716577540106952, 0.7422680412371134, 0.30434782608695654, 0.6275862068965518, 0.20464135021097044, 0.7547169811320754, 0.722397476340694, 1.0, 0.07317073170731704, 0.25274725274725274, 0.27246790299572043], [1.0]], [[0.9023861171366595, 0.18379446640316208, 0.6844919786096257, 0.6134020618556701, 0.20652173913043478, 0.5586206896551725, 0.16033755274261602, 0.7358490566037735, 0.5930599369085173, 0.893344709897611, 0.07317073170731704, 0.18681318681318682, 0.24393723252496435], [1.0]], [[0.8214027476500362, 0.6106719367588933, 0.5454545454545454, 0.5360824742268042, 0.19565217391304346, 0.4551724137931034, 0.12236286919831224, 0.6981132075471698, 0.19873817034700317, 0.5435153583617747, 0.06504065040650413, 0.11355311355311357, 0.17261055634807418], [1.0]], [[0.9175704989154013, 0.4980237154150197, 0.6310160427807486, 0.48453608247422686, 0.40217391304347827, 0.2931034482758621, 0.046413502109704644, 0.6981132075471698, 0.12302839116719244, 0.39249146757679176, 0.39024390243902435, 0.20146520146520147, 0.2867332382310984], [1.0]], [[0.8568329718004338, 0.5000000000000001, 0.6524064171122995, 0.5876288659793815, 0.3913043478260869, 0.23103448275862068, 0.05485232067510547, 0.8867924528301885, 0.17350157728706625, 0.3668941979522184, 0.3170731707317073, 0.3076923076923076, 0.20827389443651925], [1.0]], [[0.8647866955892987, 0.5355731225296443, 0.5294117647058824, 0.4072164948453609, 0.3913043478260869, 0.14137931034482756, 0.07594936708860757, 0.5094339622641509, 0.167192429022082, 0.341296928327645, 0.16260162601626021, 0.1758241758241758, 0.28316690442225395], [1.0]], [[0.9240780911062907, 0.3992094861660079, 0.5026737967914437, 0.5876288659793815, 0.21739130434782608, 0.12758620689655176, 0.07172995780590717, 0.5283018867924527, 0.19558359621451107, 0.7081911262798635, 0.17886178861788615, 0.15018315018315015, 0.24037089871611983], [1.0]], [[0.9204627621113521, 0.7154150197628459, 0.4812834224598929, 0.6134020618556701, 0.19565217391304346, 0.10344827586206899, 0.02742616033755273, 0.7358490566037735, 0.2334384858044164, 0.4556313993174061, 0.24390243902439027, 0.1758241758241758, 0.17261055634807418], [1.0]], [[0.9002169197396963, 0.5849802371541503, 0.6631016042780749, 0.6391752577319588, 0.44565217391304346, 0.2482758620689655, 0.12236286919831224, 0.5660377358490565, 0.3312302839116719, 0.8020477815699658, 0.30081300813008127, 0.10622710622710624, 0.29743223965763194], [1.0]], [[0.8546637744034707, 0.5197628458498024, 0.5026737967914437, 0.4587628865979382, 0.19565217391304346, 0.1724137931034483, 0.06751054852320675, 0.5094339622641509, 0.17665615141955837, 0.7662116040955631, 0.19512195121951217, 0.1758241758241758, 0.29029957203994294], [1.0]], [[0.9096167751265365, 0.3636363636363637, 0.7112299465240641, 0.7164948453608249, 0.3804347826086956, 0.19655172413793107, 0.10548523206751052, 0.490566037735849, 0.35646687697160884, 0.629692832764505, 0.21138211382113822, 0.19413919413919414, 0.33666191155492153], [1.0]], [[0.8966015907447579, 0.7628458498023716, 0.802139037433155, 0.7422680412371134, 0.45652173913043476, 0.3448275862068966, 0.13080168776371304, 0.2641509433962264, 0.220820189274448, 0.6160409556313993, 0.1544715447154472, 0.23809523809523805, 0.25106990014265335], [1.0]], [[0.8098336948662328, 0.45256916996047436, 0.5133689839572192, 0.43298969072164956, 0.2826086956521739, 0.09310344827586207, 0.03164556962025315, 0.5094339622641509, 0.10094637223974763, 0.3600682593856655, 0.1463414634146342, 0.20512820512820512, 0.16547788873038516], [1.0]], [[0.8510484454085322, 0.3260869565217392, 0.4919786096256683, 0.4587628865979382, 0.17391304347826086, 0.14137931034482756, 0.03586497890295358, 0.6603773584905659, 0.07255520504731862, 0.7354947952218429, 0.07317073170731704, 0.13186813186813182, 0.1369472182596291], [1.0]], [[0.9515545914678236, 0.34980237154150196, 0.5989304812834224, 0.48453608247422686, 0.22826086956521738, 0.2413793103448276, 0.07594936708860757, 0.5849056603773585, 0.2618296529968454, 0.7184300341296928, 0.11382113821138212, 0.16117216117216115, 0.27246790299572043], [1.0]], [[0.9190166305133768, 0.9703557312252966, 0.5828877005347595, 0.5103092783505155, 0.2717391304347826, 0.2413793103448276, 0.05696202531645568, 0.7358490566037735, 0.2050473186119874, 0.5477815699658702, 0.13008130081300814, 0.17216117216117213, 0.32952924393723254], [1.0]], [[0.8966015907447579, 0.6264822134387352, 0.5989304812834224, 0.6391752577319588, 0.34782608695652173, 0.28275862068965524, 0.08649789029535863, 0.5660377358490565, 0.31545741324921134, 0.5136518771331057, 0.17886178861788615, 0.10622710622710624, 0.33666191155492153], [1.0]], [[0.8872017353579176, 0.699604743083004, 0.4812834224598929, 0.48453608247422686, 0.5434782608695652, 0.21034482758620696, 0.07383966244725736, 0.5660377358490565, 0.2965299684542587, 0.7610921501706484, 0.08943089430894308, 0.10622710622710624, 0.39728958630527816], [1.0]], [[0.8799710773680405, 0.36561264822134387, 0.5401069518716578, 0.48453608247422686, 0.5434782608695652, 0.23103448275862068, 0.07172995780590717, 0.7547169811320754, 0.3312302839116719, 0.6843003412969284, 0.09756097560975609, 0.12820512820512822, 0.4008559201141227], [1.0]], [[0.9493853940708605, 0.6640316205533596, 0.7379679144385027, 0.7164948453608249, 0.2826086956521739, 0.36896551724137927, 0.08860759493670885, 0.8113207547169812, 0.2965299684542587, 0.675767918088737, 0.10569105691056911, 0.1208791208791209, 0.20114122681883026], [1.0]]]
total network error: 1.9206384363815807
network error after regularization: 1.9206384363815807
total network error: 1.7109769115611244
network error after regularization: 1.7109769115611244
total network error: 1.5303267013109472
network error after regularization: 1.5303267013109472
total network error: 1.3744738956715974
network error after regularization: 1.3744738956715974
total network error: 1.2397514206303961
network error after regularization: 1.2397514206303961
total network error: 1.1229989175187451
network error after regularization: 1.1229989175187451
total network error: 1.0215151054046199
network error after regularization: 1.0215151054046199
total network error: 0.9330062030444011
network error after regularization: 0.9330062030444011
total network error: 0.8555338857911312
network error after regularization: 0.8555338857911312
total network error: 0.7874655131965211
network error after regularization: 0.7874655131965211
total network error: 0.7274284237227405
network error after regularization: 0.7274284237227405
total network error: 0.6742692333485143
network error after regularization: 0.6742692333485143
total network error: 0.6270184164035016
network error after regularization: 0.6270184164035016
total network error: 0.5848600069336093
network error after regularization: 0.5848600069336093
total network error: 0.5471060035035351
network error after regularization: 0.5471060035035351
total network error: 0.5131749404148833
network error after regularization: 0.5131749404148833
total network error: 0.4825740577344556
network error after regularization: 0.4825740577344556
total network error: 0.4548845251090088
network error after regularization: 0.4548845251090088
total network error: 0.429749224643267
network error after regularization: 0.429749224643267
total network error: 0.40686265967422397
network error after regularization: 0.40686265967422397
total network error: 0.38596261924721853
network error after regularization: 0.38596261924721853
total network error: 0.36682328714134793
network error after regularization: 0.36682328714134793
total network error: 0.34924953691158805
network error after regularization: 0.34924953691158805
total network error: 0.3330721998234221
network error after regularization: 0.3330721998234221
total network error: 0.31814413090815713
network error after regularization: 0.31814413090815713
total network error: 0.30433693028834036
network error after regularization: 0.30433693028834036
total network error: 0.29153820322526863
network error after regularization: 0.29153820322526863
total network error: 0.2796492638658125
network error after regularization: 0.2796492638658125
total network error: 0.268583205202525
network error after regularization: 0.268583205202525
total network error: 0.25826327200887317
network error after regularization: 0.25826327200887317
total network error: 0.2486214850703949
network error after regularization: 0.2486214850703949
total network error: 0.23959747440575352
network error after regularization: 0.23959747440575352
total network error: 0.2311374867745938
network error after regularization: 0.2311374867745938
total network error: 0.22319353894160032
network error after regularization: 0.22319353894160032
total network error: 0.21572269318401127
network error after regularization: 0.21572269318401127
total network error: 0.2086864356159398
network error after regularization: 0.2086864356159398
total network error: 0.2020501412366963
network error after regularization: 0.2020501412366963
total network error: 0.19578261233627717
network error after regularization: 0.19578261233627717
total network error: 0.18985567912524667
network error after regularization: 0.18985567912524667
total network error: 0.18424385329162984
network error after regularization: 0.18424385329162984
total network error: 0.17892402669904994
network error after regularization: 0.17892402669904994
total network error: 0.1738752086885063
network error after regularization: 0.1738752086885063
total network error: 0.16907829647947684
network error after regularization: 0.16907829647947684
total network error: 0.16451587402367646
network error after regularization: 0.16451587402367646
total network error: 0.16017203537851213
network error after regularization: 0.16017203537851213
total network error: 0.15603222926276944
network error after regularization: 0.15603222926276944
total network error: 0.1520831219551863
network error after regularization: 0.1520831219551863
total network error: 0.14831247611433437
network error after regularization: 0.14831247611433437
total network error: 0.14470904344946295
network error after regularization: 0.14470904344946295
total network error: 0.1412624694680174
network error after regularization: 0.1412624694680174
total network error: 0.13796320877569232
network error after regularization: 0.13796320877569232
total network error: 0.13480244961675625
network error after regularization: 0.13480244961675625
total network error: 0.13177204652227464
network error after regularization: 0.13177204652227464
total network error: 0.1288644600869376
network error after regularization: 0.1288644600869376
total network error: 0.12607270302577234
network error after regularization: 0.12607270302577234
total network error: 0.12339029177364098
network error after regularization: 0.12339029177364098
total network error: 0.12081120298605633
network error after regularization: 0.12081120298605633
total network error: 0.11832983438195076
network error after regularization: 0.11832983438195076
total network error: 0.11594096943968685
network error after regularization: 0.11594096943968685
total network error: 0.11363974551849915
network error after regularization: 0.11363974551849915
total network error: 0.11142162503018319
network error after regularization: 0.11142162503018319
total network error: 0.10928236933139551
network error after regularization: 0.10928236933139551
total network error: 0.10721801504643322
network error after regularization: 0.10721801504643322
total network error: 0.10522485256469312
network error after regularization: 0.10522485256469312
total network error: 0.10329940648689123
network error after regularization: 0.10329940648689123
total network error: 0.10143841782019075
network error after regularization: 0.10143841782019075
total network error: 0.0996388277451539
network error after regularization: 0.0996388277451539
total network error: 0.09789776279736505
network error after regularization: 0.09789776279736505
total network error: 0.09621252132404014
network error after regularization: 0.09621252132404014
total network error: 0.09458056109128188
network error after regularization: 0.09458056109128188
total network error: 0.09299948793113208
network error after regularization: 0.09299948793113208
total network error: 0.09146704532946041
network error after regularization: 0.09146704532946041
total network error: 0.08998110486621587
network error after regularization: 0.08998110486621587
total network error: 0.08853965742883452
network error after regularization: 0.08853965742883452
total network error: 0.08714080512780348
network error after regularization: 0.08714080512780348
total network error: 0.0857827538506395
network error after regularization: 0.0857827538506395
total network error: 0.08446380639700282
network error after regularization: 0.08446380639700282
total network error: 0.08318235614339109
network error after regularization: 0.08318235614339109
total network error: 0.08193688119096551
network error after regularization: 0.08193688119096551
total network error: 0.08072593895460577
network error after regularization: 0.08072593895460577
total network error: 0.07954816115534845
network error after regularization: 0.07954816115534845
total network error: 0.07840224918198685
network error after regularization: 0.07840224918198685
total network error: 0.07728696979085539
network error after regularization: 0.07728696979085539
total network error: 0.07620115111572309
network error after regularization: 0.07620115111572309
total network error: 0.07514367896232768
network error after regularization: 0.07514367896232768
total network error: 0.07411349336441743
network error after regularization: 0.07411349336441743
total network error: 0.07310958538027237
network error after regularization: 0.07310958538027237
total network error: 0.07213099411056566
network error after regularization: 0.07213099411056566
total network error: 0.07117680392013051
network error after regularization: 0.07117680392013051
total network error: 0.07024614184773399
network error after regularization: 0.07024614184773399
total network error: 0.06933817518934772
network error after regularization: 0.06933817518934772
total network error: 0.06845210924165654
network error after regularization: 0.06845210924165654
total network error: 0.06758718519368333
network error after regularization: 0.06758718519368333
total network error: 0.06674267815543261
network error after regularization: 0.06674267815543261
total network error: 0.0659178953133888
network error after regularization: 0.0659178953133888
total network error: 0.06511217420354726
network error after regularization: 0.06511217420354726
total network error: 0.06432488109342709
network error after regularization: 0.06432488109342709
total network error: 0.06355540946520871
network error after regularization: 0.06355540946520871
total network error: 0.06280317859277502
network error after regularization: 0.06280317859277502
total network error: 0.062067632206014724
network error after regularization: 0.062067632206014724
total network error: 0.06134823723627084
network error after regularization: 0.06134823723627084
total network error: 0.06064448263729909
network error after regularization: 0.06064448263729909
total network error: 0.05995587827654063
network error after regularization: 0.05995587827654063
total network error: 0.05928195389191347
network error after regularization: 0.05928195389191347
total network error: 0.058622258109694084
network error after regularization: 0.058622258109694084
total network error: 0.0579763575193977
network error after regularization: 0.0579763575193977
total network error: 0.057343835801872176
network error after regularization: 0.057343835801872176
total network error: 0.05672429290710228
network error after regularization: 0.05672429290710228
total network error: 0.056117344278481945
network error after regularization: 0.056117344278481945
total network error: 0.05552262012054745
network error after regularization: 0.05552262012054745
total network error: 0.05493976470738391
network error after regularization: 0.05493976470738391
total network error: 0.054368435729118876
network error after regularization: 0.054368435729118876
total network error: 0.053808303674100506
network error after regularization: 0.053808303674100506
total network error: 0.05325905124452857
network error after regularization: 0.05325905124452857
total network error: 0.052720372803463506
network error after regularization: 0.052720372803463506
total network error: 0.05219197385128337
network error after regularization: 0.05219197385128337
total network error: 0.05167357052979092
network error after regularization: 0.05167357052979092
total network error: 0.051164889152298824
network error after regularization: 0.051164889152298824
total network error: 0.050665665758131515
network error after regularization: 0.050665665758131515
total network error: 0.05017564569009067
network error after regularization: 0.05017564569009067
total network error: 0.04969458319352689
network error after regularization: 0.04969458319352689
total network error: 0.04922224103574997
network error after regularization: 0.04922224103574997
total network error: 0.0487583901445963
network error after regularization: 0.0487583901445963
total network error: 0.04830280926504546
network error after regularization: 0.04830280926504546
total network error: 0.04785528463285383
network error after regularization: 0.04785528463285383
total network error: 0.04741560966423676
network error after regularization: 0.04741560966423676
total network error: 0.046983584660694126
network error after regularization: 0.046983584660694126
total network error: 0.04655901652813174
network error after regularization: 0.04655901652813174
total network error: 0.04614171850948329
network error after regularization: 0.04614171850948329
total network error: 0.045731509930088655
network error after regularization: 0.045731509930088655
total network error: 0.045328215955129904
network error after regularization: 0.045328215955129904
total network error: 0.04493166735846911
network error after regularization: 0.04493166735846911
total network error: 0.04454170030227334
network error after regularization: 0.04454170030227334
total network error: 0.04415815612684809
network error after regularization: 0.04415815612684809
total network error: 0.0437808811501367
network error after regularization: 0.0437808811501367
total network error: 0.0434097264763748
network error after regularization: 0.0434097264763748
total network error: 0.043044547813420105
network error after regularization: 0.043044547813420105
total network error: 0.04268520529830501
network error after regularization: 0.04268520529830501
total network error: 0.04233156333058781
network error after regularization: 0.04233156333058781
total network error: 0.04198349041310042
network error after regularization: 0.04198349041310042
total network error: 0.04164085899971761
network error after regularization: 0.04164085899971761
total network error: 0.04130354534978959
network error after regularization: 0.04130354534978959
total network error: 0.04097142938890452
network error after regularization: 0.04097142938890452
total network error: 0.04064439457566387
network error after regularization: 0.04064439457566387
total network error: 0.04032232777417186
network error after regularization: 0.04032232777417186
total network error: 0.040005119131958124
network error after regularization: 0.040005119131958124
total network error: 0.03969266196306662
network error after regularization: 0.03969266196306662
total network error: 0.03938485263605967
network error after regularization: 0.03938485263605967
total network error: 0.039081590466699914
network error after regularization: 0.039081590466699914
total network error: 0.038782777615084425
network error after regularization: 0.038782777615084425
total network error: 0.03848831898702025
network error after regularization: 0.03848831898702025
total network error: 0.038198122139438226
network error after regularization: 0.038198122139438226
total network error: 0.0379120971896565
network error after regularization: 0.0379120971896565
total network error: 0.03763015672831296
network error after regularization: 0.03763015672831296
total network error: 0.03735221573579541
network error after regularization: 0.03735221573579541
total network error: 0.03707819150200836
network error after regularization: 0.03707819150200836
total network error: 0.03680800354932342
network error after regularization: 0.03680800354932342
total network error: 0.03654157355856696
network error after regularization: 0.03654157355856696
total network error: 0.03627882529790837
network error after regularization: 0.03627882529790837
total network error: 0.036019684554517185
network error after regularization: 0.036019684554517185
total network error: 0.03576407906886543
network error after regularization: 0.03576407906886543
total network error: 0.035511938471557467
network error after regularization: 0.035511938471557467
total network error: 0.03526319422257477
network error after regularization: 0.03526319422257477
total network error: 0.03501777955283017
network error after regularization: 0.03501777955283017
total network error: 0.034775629407930046
network error after regularization: 0.034775629407930046
total network error: 0.03453668039404809
network error after regularization: 0.03453668039404809
total network error: 0.03430087072582022
network error after regularization: 0.03430087072582022
total network error: 0.03406814017617287
network error after regularization: 0.03406814017617287
total network error: 0.03383843002800266
network error after regularization: 0.03383843002800266
total network error: 0.03361168302762825
network error after regularization: 0.03361168302762825
total network error: 0.033387843339940104
network error after regularization: 0.033387843339940104
total network error: 0.033166856505176104
network error after regularization: 0.033166856505176104
total network error: 0.03294866939725572
network error after regularization: 0.03294866939725572
total network error: 0.03273323018360788
network error after regularization: 0.03273323018360788
total network error: 0.0325204882864305
network error after regularization: 0.0325204882864305
total network error: 0.032310394345323276
network error after regularization: 0.032310394345323276
total network error: 0.03210290018123737
network error after regularization: 0.03210290018123737
total network error: 0.03189795876168893
network error after regularization: 0.03189795876168893
total network error: 0.031695524167184845
network error after regularization: 0.031695524167184845
total network error: 0.031495551558812236
network error after regularization: 0.031495551558812236
total network error: 0.03129799714694555
network error after regularization: 0.03129799714694555
total network error: 0.031102818161026183
network error after regularization: 0.031102818161026183
total network error: 0.030909972820373093
network error after regularization: 0.030909972820373093
total network error: 0.03071942030598288
network error after regularization: 0.03071942030598288
total network error: 0.03053112073328149
network error after regularization: 0.03053112073328149
total network error: 0.030345035125790093
network error after regularization: 0.030345035125790093
total network error: 0.030161125389669998
network error after regularization: 0.030161125389669998
total network error: 0.02997935428911237
network error after regularization: 0.02997935428911237
total network error: 0.029799685422541224
network error after regularization: 0.029799685422541224
total network error: 0.029622083199597443
network error after regularization: 0.029622083199597443
total network error: 0.02944651281887585
network error after regularization: 0.02944651281887585
total network error: 0.029272940246385323
network error after regularization: 0.029272940246385323
total network error: 0.029101332194706273
network error after regularization: 0.029101332194706273
total network error: 0.028931656102818164
network error after regularization: 0.028931656102818164
total network error: 0.028763880116573354
network error after regularization: 0.028763880116573354
total network error: 0.028597973069792615
network error after regularization: 0.028597973069792615
total network error: 0.028433904465959933
network error after regularization: 0.028433904465959933
total network error: 0.02827164446049419
network error after regularization: 0.02827164446049419
total network error: 0.02811116384357745
network error after regularization: 0.02811116384357745
total network error: 0.02795243402351906
network error after regularization: 0.02795243402351906
total network error: 0.027795427010636514
network error after regularization: 0.027795427010636514
total network error: 0.027640115401634656
network error after regularization: 0.027640115401634656
total network error: 0.027486472364465296
network error after regularization: 0.027486472364465296
total network error: 0.027334471623650252
network error after regularization: 0.027334471623650252
total network error: 0.02718408744605139
network error after regularization: 0.02718408744605139
total network error: 0.02703529462707199
network error after regularization: 0.02703529462707199
total network error: 0.02688806847727446
network error after regularization: 0.02688806847727446
total network error: 0.02674238480939983
network error after regularization: 0.02674238480939983
total network error: 0.026598219925774675
network error after regularization: 0.026598219925774675
total network error: 0.026455550606093108
network error after regularization: 0.026455550606093108
total network error: 0.02631435409555979
network error after regularization: 0.02631435409555979
total network error: 0.02617460809338264
network error after regularization: 0.02617460809338264
total network error: 0.026036290741602616
network error after regularization: 0.026036290741602616
total network error: 0.02589938061424954
network error after regularization: 0.02589938061424954
total network error: 0.025763856706813068
network error after regularization: 0.025763856706813068
total network error: 0.025629698426017596
network error after regularization: 0.025629698426017596
total network error: 0.02549688557989206
network error after regularization: 0.02549688557989206
total network error: 0.02536539836812358
network error after regularization: 0.02536539836812358
total network error: 0.025235217372686632
network error after regularization: 0.025235217372686632
total network error: 0.025106323548737968
network error after regularization: 0.025106323548737968
total network error: 0.024978698215768785
network error after regularization: 0.024978698215768785
total network error: 0.024852323049006152
network error after regularization: 0.024852323049006152
total network error: 0.02472718007105453
network error after regularization: 0.02472718007105453
total network error: 0.02460325164377118
network error after regularization: 0.02460325164377118
total network error: 0.02448052046036637
network error after regularization: 0.02448052046036637
total network error: 0.024358969537722097
network error after regularization: 0.024358969537722097
total network error: 0.024238582208922402
network error after regularization: 0.024238582208922402
total network error: 0.024119342115987697
network error after regularization: 0.024119342115987697
total network error: 0.02400123320280777
network error after regularization: 0.02400123320280777
total network error: 0.023884239708266395
network error after regularization: 0.023884239708266395
total network error: 0.023768346159551836
network error after regularization: 0.023768346159551836
total network error: 0.023653537365647338
network error after regularization: 0.023653537365647338
total network error: 0.02353979841099639
network error after regularization: 0.02353979841099639
total network error: 0.023427114649336635
network error after regularization: 0.023427114649336635
total network error: 0.023315471697697848
network error after regularization: 0.023315471697697848
total network error: 0.02320485543055877
network error after regularization: 0.02320485543055877
total network error: 0.023095251974157648
network error after regularization: 0.023095251974157648
total network error: 0.022986647700952365
network error after regularization: 0.022986647700952365
total network error: 0.022879029224225127
network error after regularization: 0.022879029224225127
total network error: 0.022772383392827545
network error after regularization: 0.022772383392827545
total network error: 0.02266669728606189
network error after regularization: 0.02266669728606189
total network error: 0.022561958208694263
network error after regularization: 0.022561958208694263
total network error: 0.022458153686096428
network error after regularization: 0.022458153686096428
total network error: 0.022355271459511196
network error after regularization: 0.022355271459511196
total network error: 0.02225329948143912
network error after regularization: 0.02225329948143912
total network error: 0.022152225911141882
network error after regularization: 0.022152225911141882
total network error: 0.022052039110259616
network error after regularization: 0.022052039110259616
total network error: 0.02195272763853841
network error after regularization: 0.02195272763853841
updated weights:
 [array([[-0.42254248, -0.18694147,  0.50948058, -0.09212252, -0.49877249,
         0.12869684, -0.26431814, -0.48242459, -0.34129114,  0.53975701,
         0.07902436, -0.48376066,  0.53407625,  0.80714265],
       [ 0.40608763, -0.20912915, -0.23426122, -0.29939943, -0.51324475,
        -0.01664205,  0.17263088,  0.37880919, -0.4845918 , -0.18905664,
        -0.0715985 ,  0.20681707, -0.71961463, -0.29070303],
       [ 0.261285  , -0.53458554, -0.09447665,  0.7983304 ,  0.05045231,
         0.04518822,  0.57400639,  0.41057418,  0.4009058 ,  0.33060737,
        -0.26694762, -0.66487324,  0.72667135,  0.31577717],
       [-0.28191479, -0.68695407,  0.72447337,  0.5556392 ,  0.45934204,
         0.82075646,  0.48219459,  0.37528876, -0.50079532,  0.10017831,
         0.46687531,  0.05752454,  0.14539348, -0.39577475],
       [ 0.35918556,  0.41770919, -0.01854394, -0.49391353, -0.49144534,
         0.84981933, -0.41750627, -0.42304274, -0.66440838,  0.33871747,
         0.09683976, -0.65663332,  0.18499125,  0.5218113 ],
       [ 0.54606704,  0.47445589, -0.50612424,  0.20393799, -0.09048578,
        -0.25755397,  0.56309919, -0.54235184,  0.01207378, -0.49136665,
         0.36154026, -0.20642582, -0.01350148, -0.17994091],
       [-0.05495964,  0.15016112,  0.43144326,  0.23613654,  0.41608872,
        -0.19243939, -0.04593072,  0.31336142,  0.3785227 , -0.06222145,
         0.08782577, -0.16570621, -0.43555019,  0.4730908 ],
       [-0.81622206,  0.19420886,  0.40325671, -0.07198683,  0.25248763,
         0.60149185, -0.70973055,  0.2620358 ,  0.66290647, -0.23834173,
         0.4174849 , -0.22869314, -0.17255488, -0.09643393],
       [ 0.16086831,  0.4119861 , -0.77800454,  0.07726498, -0.59574051,
         0.82817838,  0.53640099, -0.46900887,  0.73807165, -0.86262761,
        -0.48138733,  0.16212751, -0.21940175,  0.41546846],
       [ 0.19908483,  0.6233693 , -0.05046255, -0.36483647, -0.13803778,
         0.79835643, -0.66902323, -0.45139   , -0.03324009,  0.44610015,
         0.07379146, -0.17844518, -0.13187506, -0.58345791],
       [ 0.07420434, -0.81197919,  0.16411227, -0.04265788, -0.31038013,
        -0.79685536,  0.20069242, -0.22134338, -0.5261977 ,  0.49823395,
         0.447165  ,  0.32301179, -0.20030524, -0.00558797],
       [ 0.01457631,  0.32101199,  0.22833314, -0.25863544,  0.01207206,
        -0.29143306, -0.25333234, -0.08418552,  0.87164594, -0.20708364,
        -0.20904401, -0.16964806, -0.31457754, -0.41564293],
       [-0.56435044,  0.40946435, -0.45640169,  0.29872252, -0.20395904,
        -0.26398266,  0.5422826 ,  0.50638967, -0.67811907,  0.19215883,
         0.14179125, -0.12551528,  0.4867238 ,  0.04488147]]), array([[ 0.0129731 ,  0.37246902, -0.51854825,  0.96049986,  0.69162241,
        -0.42029795,  0.65485949,  0.73208867, -0.33463179, -0.190952  ,
        -0.03997631, -0.45084421,  0.12629791, -0.12820298],
       [ 0.66786966,  0.19806303, -0.07008332,  0.69205268,  0.79163654,
        -0.07206058,  0.35730601,  0.3763885 ,  0.70116704,  0.46771869,
         0.03161357, -0.42346507,  0.17752732,  0.11759396],
       [ 0.33183937, -0.22034794, -0.20162818, -0.19757917,  0.36881526,
         0.77993105, -0.36245278,  0.35776915, -0.86457799,  0.03008556,
        -0.08987667,  0.45485838, -0.05748681, -0.4455663 ],
       [-0.06106461,  0.59321665, -0.27557997,  0.52009335, -0.29009666,
         0.40920956, -0.22881166,  0.6648664 ,  0.48408791,  0.53485656,
         0.10997917, -0.31833735,  0.30361627,  0.5187081 ],
       [ 1.27723896,  0.43304818, -0.09390251,  0.25702188,  0.28235519,
         0.16810167,  0.29386344,  0.43814382, -0.36236399, -0.30321729,
         0.04003923,  0.76913469, -0.40836301,  0.33171138],
       [-0.14943673,  0.36838688,  0.7504265 ,  0.35690204,  0.12409118,
         0.53617219,  0.429174  ,  0.09520078, -0.57186403,  0.5030526 ,
        -0.69800969, -0.25987916,  0.18436466,  0.81658153]]), array([[ 0.1832558 ,  1.07223635,  1.59466113,  0.14197436,  0.5164018 ,
         1.45951394,  0.7026102 ],
       [ 0.61158213,  0.58369251,  0.53653469,  1.15334711,  1.37993586,
         0.79540541,  1.15101665],
       [ 1.07882699,  0.88980811,  1.09013885, -0.22287167,  0.56202812,
         1.07692272,  0.94488301]])]
import sys; print('Python %s on %s' % (sys.version, sys.platform))